EESchema Schematic File Version 4
EELAYER 30 0
EELAYER END
$Descr A4 11693 8268
encoding utf-8
Sheet 1 1
Title "µVRM-MP2307 - LM108x Replacement"
Date "2021-11-12"
Rev "0.1"
Comp ""
Comment1 ""
Comment2 ""
Comment3 "License: Creative Commons Attribution-ShareAlike 4.0 International (CC BY-SA 4.0)"
Comment4 "© 2021 Torsten Kurbad <amiga@tk-webart.de>"
$EndDescr
$Comp
L uVRM-MP2307:MP2307 U1
U 1 1 618ECA73
P 5400 3450
F 0 "U1" H 5150 3800 50  0000 C CNN
F 1 "MP2307" H 5500 3800 50  0000 C CNN
F 2 "uVRM-MP2307:SOIC-8-1EP_3.9x4.9mm_P1.27mm_EP2.514x3.2mm" H 5850 3100 50  0001 C CNN
F 3 "https://www.monolithicpower.com/en/documentview/productdocument/index/version/2/document_type/Datasheet/lang/en/sku/MP2307/document_id/503/" H 5400 3450 50  0001 C CNN
	1    5400 3450
	1    0    0    -1  
$EndComp
$Comp
L Device:C C5
U 1 1 618ED27D
P 4800 3300
F 0 "C5" V 4548 3300 50  0000 C CNN
F 1 "10nF" V 4639 3300 50  0000 C CNN
F 2 "Capacitor_SMD:C_0603_1608Metric" H 4838 3150 50  0001 C CNN
F 3 "~" H 4800 3300 50  0001 C CNN
	1    4800 3300
	0    1    1    0   
$EndComp
Wire Wire Line
	5300 3050 5300 2550
Wire Wire Line
	5300 2550 4150 2550
$Comp
L Device:R R4
U 1 1 618F0180
P 5650 2550
F 0 "R4" V 5443 2550 50  0000 C CNN
F 1 "100k" V 5534 2550 50  0000 C CNN
F 2 "Resistor_SMD:R_0603_1608Metric" V 5580 2550 50  0001 C CNN
F 3 "~" H 5650 2550 50  0001 C CNN
	1    5650 2550
	0    1    1    0   
$EndComp
Wire Wire Line
	5300 2550 5500 2550
Connection ~ 5300 2550
Wire Wire Line
	5800 2550 5900 2550
$Comp
L Device:C C1
U 1 1 618F1008
P 4150 3650
F 0 "C1" H 4265 3696 50  0000 L CNN
F 1 "10µF" H 4265 3605 50  0000 L CNN
F 2 "Capacitor_SMD:C_0805_2012Metric" H 4188 3500 50  0001 C CNN
F 3 "~" H 4150 3650 50  0001 C CNN
	1    4150 3650
	1    0    0    -1  
$EndComp
Wire Wire Line
	4150 3500 4150 2550
Connection ~ 4150 2550
$Comp
L power:GND #PWR0101
U 1 1 618F20A3
P 4150 3800
F 0 "#PWR0101" H 4150 3550 50  0001 C CNN
F 1 "GND" H 4155 3627 50  0000 C CNN
F 2 "" H 4150 3800 50  0001 C CNN
F 3 "" H 4150 3800 50  0001 C CNN
	1    4150 3800
	1    0    0    -1  
$EndComp
$Comp
L power:GND #PWR0102
U 1 1 618F23AD
P 5350 3850
F 0 "#PWR0102" H 5350 3600 50  0001 C CNN
F 1 "GND" H 5355 3677 50  0000 C CNN
F 2 "" H 5350 3850 50  0001 C CNN
F 3 "" H 5350 3850 50  0001 C CNN
	1    5350 3850
	1    0    0    -1  
$EndComp
$Comp
L power:GND #PWR0103
U 1 1 618F2713
P 5500 3850
F 0 "#PWR0103" H 5500 3600 50  0001 C CNN
F 1 "GND" H 5505 3677 50  0000 C CNN
F 2 "" H 5500 3850 50  0001 C CNN
F 3 "" H 5500 3850 50  0001 C CNN
	1    5500 3850
	1    0    0    -1  
$EndComp
$Comp
L Device:C C4
U 1 1 618F2B13
P 5950 3600
F 0 "C4" V 6000 3500 50  0000 C CNN
F 1 "100nF" V 6100 3600 50  0000 C CNN
F 2 "Capacitor_SMD:C_0603_1608Metric" H 5988 3450 50  0001 C CNN
F 3 "~" H 5950 3600 50  0001 C CNN
	1    5950 3600
	0    1    1    0   
$EndComp
$Comp
L power:GND #PWR0104
U 1 1 618F4189
P 6100 3850
F 0 "#PWR0104" H 6100 3600 50  0001 C CNN
F 1 "GND" H 6105 3677 50  0000 C CNN
F 2 "" H 6100 3850 50  0001 C CNN
F 3 "" H 6100 3850 50  0001 C CNN
	1    6100 3850
	1    0    0    -1  
$EndComp
Wire Wire Line
	6100 3850 6100 3600
Wire Wire Line
	5900 2550 5900 3450
Wire Wire Line
	5900 3450 5800 3450
$Comp
L Device:C C3
U 1 1 618F64D6
P 6100 3300
F 0 "C3" V 5848 3300 50  0000 C CNN
F 1 "3.9nF" V 5939 3300 50  0000 C CNN
F 2 "Capacitor_SMD:C_0603_1608Metric" H 6138 3150 50  0001 C CNN
F 3 "~" H 6100 3300 50  0001 C CNN
	1    6100 3300
	0    1    1    0   
$EndComp
Wire Wire Line
	5800 3300 5950 3300
$Comp
L Device:R R3
U 1 1 618F71A5
P 6350 3650
F 0 "R3" H 6420 3696 50  0000 L CNN
F 1 "6.8k" H 6420 3605 50  0000 L CNN
F 2 "Resistor_SMD:R_0603_1608Metric" V 6280 3650 50  0001 C CNN
F 3 "~" H 6350 3650 50  0001 C CNN
	1    6350 3650
	1    0    0    -1  
$EndComp
$Comp
L power:GND #PWR0105
U 1 1 618F7B91
P 6350 3850
F 0 "#PWR0105" H 6350 3600 50  0001 C CNN
F 1 "GND" H 6355 3677 50  0000 C CNN
F 2 "" H 6350 3850 50  0001 C CNN
F 3 "" H 6350 3850 50  0001 C CNN
	1    6350 3850
	1    0    0    -1  
$EndComp
Wire Wire Line
	6250 3300 6350 3300
Wire Wire Line
	6350 3300 6350 3500
Wire Wire Line
	6350 3800 6350 3850
$Comp
L Device:R R2
U 1 1 618F874A
P 4900 3750
F 0 "R2" H 4970 3796 50  0000 L CNN
F 1 "10k" H 4970 3705 50  0000 L CNN
F 2 "Resistor_SMD:R_0603_1608Metric" V 4830 3750 50  0001 C CNN
F 3 "~" H 4900 3750 50  0001 C CNN
	1    4900 3750
	1    0    0    -1  
$EndComp
Wire Wire Line
	4900 3600 5000 3600
$Comp
L Device:R R1
U 1 1 618F9C99
P 4650 3600
F 0 "R1" V 4550 3400 50  0000 L CNN
F 1 "26.1k*" V 4550 3550 50  0000 L CNN
F 2 "Resistor_SMD:R_0603_1608Metric" V 4580 3600 50  0001 C CNN
F 3 "~" H 4650 3600 50  0001 C CNN
	1    4650 3600
	0    1    1    0   
$EndComp
Wire Wire Line
	4950 3300 5000 3300
Wire Wire Line
	4650 3300 4650 3450
Wire Wire Line
	4650 3450 5000 3450
Connection ~ 4900 3600
Wire Wire Line
	4800 3600 4900 3600
$Comp
L Device:L L1
U 1 1 618FE8BC
P 4500 3050
F 0 "L1" V 4690 3050 50  0000 C CNN
F 1 "10µH" V 4599 3050 50  0000 C CNN
F 2 "Inductor_SMD:L_Bourns_SRP7028A_7.3x6.6mm" H 4500 3050 50  0001 C CNN
F 3 "~" H 4500 3050 50  0001 C CNN
	1    4500 3050
	0    -1   -1   0   
$EndComp
Wire Wire Line
	4650 3300 4650 3050
Connection ~ 4650 3300
Wire Wire Line
	4500 3600 4500 3450
Wire Wire Line
	4500 3450 4350 3450
Wire Wire Line
	4350 3450 4350 3050
Connection ~ 4350 3050
$Comp
L power:GND #PWR0106
U 1 1 619022BF
P 4900 3900
F 0 "#PWR0106" H 4900 3650 50  0001 C CNN
F 1 "GND" H 4905 3727 50  0000 C CNN
F 2 "" H 4900 3900 50  0001 C CNN
F 3 "" H 4900 3900 50  0001 C CNN
	1    4900 3900
	1    0    0    -1  
$EndComp
$Comp
L Device:C C2
U 1 1 61902997
P 4500 3850
F 0 "C2" H 4615 3896 50  0000 L CNN
F 1 "22µF" H 4615 3805 50  0000 L CNN
F 2 "Capacitor_SMD:C_0805_2012Metric" H 4538 3700 50  0001 C CNN
F 3 "~" H 4500 3850 50  0001 C CNN
	1    4500 3850
	1    0    0    -1  
$EndComp
$Comp
L power:GND #PWR0107
U 1 1 619040FD
P 4500 4000
F 0 "#PWR0107" H 4500 3750 50  0001 C CNN
F 1 "GND" H 4505 3827 50  0000 C CNN
F 2 "" H 4500 4000 50  0001 C CNN
F 3 "" H 4500 4000 50  0001 C CNN
	1    4500 4000
	1    0    0    -1  
$EndComp
Wire Wire Line
	4500 3600 4500 3700
Connection ~ 4500 3600
$Comp
L Connector_Generic:Conn_01x03 J1
U 1 1 61906195
P 3550 2650
F 0 "J1" H 3468 2325 50  0000 C CNN
F 1 "Conn_01x03" H 3468 2416 50  0000 C CNN
F 2 "uVRM-MP2307:TSOP-Connector" H 3550 2650 50  0001 C CNN
F 3 "~" H 3550 2650 50  0001 C CNN
	1    3550 2650
	-1   0    0    1   
$EndComp
Wire Wire Line
	3750 2550 4150 2550
Wire Wire Line
	3750 2650 4350 2650
Wire Wire Line
	4350 2650 4350 3050
$Comp
L power:GND #PWR0108
U 1 1 6190AAEE
P 3750 2750
F 0 "#PWR0108" H 3750 2500 50  0001 C CNN
F 1 "GND" H 3755 2577 50  0000 C CNN
F 2 "" H 3750 2750 50  0001 C CNN
F 3 "" H 3750 2750 50  0001 C CNN
	1    3750 2750
	1    0    0    -1  
$EndComp
Text Label 3750 2650 0    50   ~ 0
VDD
Text Label 3750 2550 0    50   ~ 0
VCC
Text Notes 5700 5300 0    50   ~ 0
* R1 value vs. VOUT\n  26.1k ~~ 3.34 V\n  27.0k ~~ 3.42 V\n  27.4k ~~ 3.46 V\n  28.0k ~~ 3.52 V
Text Notes 5700 5450 0    50   ~ 0
R1=10.81*(VOUT−0.925)kΩ
Text Notes 5700 5550 0    50   ~ 0
VOUT=0.0925*(R1+10)kΩ
$EndSCHEMATC
