%FSLAX45Y45*%
G04 Gerber Fmt 4.5, Leading zero omitted, Abs format (unit mm)*
G04 Created by KiCad (PCBNEW 6.0.4) date 2022-05-17 11:40:29*
%MOMM*%
%LPD*%
G01*
G04 APERTURE LIST*
%TA.AperFunction,Profile*%
%ADD10C,0.100000*%
%TD*%
%ADD11C,0.200000*%
%ADD12C,0.040000*%
%ADD13C,0.100000*%
G04 APERTURE END LIST*
D10*
X9540000Y-6522000D02*
X7846000Y-6522000D01*
X2250000Y-6272000D02*
X3466000Y-6272000D01*
X3956000Y-3198000D02*
X4196000Y-3198000D01*
X11246000Y-6272000D02*
X11246000Y-5574000D01*
X5650000Y-5574000D02*
X5650000Y-6522000D01*
X3956000Y-4136000D02*
X3956000Y-3198000D01*
X7846000Y-5324000D02*
X7846000Y-4386000D01*
X9300000Y-4626000D02*
X8086000Y-4626000D01*
X7846000Y-2948000D02*
X7846000Y-2000000D01*
X5410000Y-4626000D02*
X4196000Y-4626000D01*
X5900000Y-3198000D02*
X6140000Y-3198000D01*
X9540000Y-4386000D02*
X9540000Y-5324000D01*
X9540000Y-2000000D02*
X9540000Y-2250000D01*
X5650000Y-6522000D02*
X3956000Y-6522000D01*
X2000000Y-2948000D02*
X2000000Y-2000000D01*
X5900000Y-6272000D02*
X5900000Y-5574000D01*
X3706000Y-4136000D02*
X2000000Y-4136000D01*
X7596000Y-2000000D02*
X7596000Y-2250000D01*
X11496000Y-4136000D02*
X11246000Y-4136000D01*
X11246000Y-2948000D02*
X11246000Y-2250000D01*
X9790000Y-4386000D02*
X11496000Y-4386000D01*
X2000000Y-6522000D02*
X2000000Y-5574000D01*
X5650000Y-3198000D02*
X5650000Y-4136000D01*
X2000000Y-4136000D02*
X2000000Y-3198000D01*
X3706000Y-2948000D02*
X3466000Y-2948000D01*
X2250000Y-5324000D02*
X2000000Y-5324000D01*
X7846000Y-2000000D02*
X9540000Y-2000000D01*
X6140000Y-4626000D02*
X6140000Y-5324000D01*
X5650000Y-4136000D02*
X3956000Y-4136000D01*
X11996000Y-1500000D02*
X1500000Y-1500000D01*
X9540000Y-2250000D02*
X9540000Y-2948000D01*
X6140000Y-6272000D02*
X7356000Y-6272000D01*
X8086000Y-3198000D02*
X8086000Y-3896000D01*
X11246000Y-4626000D02*
X10030000Y-4626000D01*
X10030000Y-6272000D02*
X11246000Y-6272000D01*
X7596000Y-2948000D02*
X7356000Y-2948000D01*
X10030000Y-2250000D02*
X10030000Y-2948000D01*
X10030000Y-5324000D02*
X9790000Y-5324000D01*
X3466000Y-5574000D02*
X3706000Y-5574000D01*
X2250000Y-5574000D02*
X2250000Y-6272000D01*
X11496000Y-6522000D02*
X9790000Y-6522000D01*
X6140000Y-3198000D02*
X6140000Y-3896000D01*
X11496000Y-2948000D02*
X11246000Y-2948000D01*
X7846000Y-3198000D02*
X8086000Y-3198000D01*
X7596000Y-4386000D02*
X7596000Y-5324000D01*
X7596000Y-2250000D02*
X7596000Y-2948000D01*
X11246000Y-2250000D02*
X10030000Y-2250000D01*
X6140000Y-2948000D02*
X5900000Y-2948000D01*
X2000000Y-5574000D02*
X2250000Y-5574000D01*
X3706000Y-5324000D02*
X3466000Y-5324000D01*
X7596000Y-4136000D02*
X5900000Y-4136000D01*
X5650000Y-2250000D02*
X5650000Y-2948000D01*
X11996000Y-7022000D02*
X11996000Y-1500000D01*
X9300000Y-5574000D02*
X9540000Y-5574000D01*
X3706000Y-3198000D02*
X3706000Y-4136000D01*
X8086000Y-5574000D02*
X8086000Y-6272000D01*
X7846000Y-4136000D02*
X7846000Y-3198000D01*
X11496000Y-2000000D02*
X11496000Y-2948000D01*
X2000000Y-4386000D02*
X2250000Y-4386000D01*
X9790000Y-2000000D02*
X11496000Y-2000000D01*
X4196000Y-5574000D02*
X4196000Y-6272000D01*
X7596000Y-3198000D02*
X7596000Y-4136000D01*
X11496000Y-5574000D02*
X11496000Y-6522000D01*
X9790000Y-4136000D02*
X9790000Y-3198000D01*
X11496000Y-4386000D02*
X11496000Y-5324000D01*
X3706000Y-6522000D02*
X2000000Y-6522000D01*
X9790000Y-6272000D02*
X9790000Y-5574000D01*
X8086000Y-2948000D02*
X7846000Y-2948000D01*
X9540000Y-5324000D02*
X9300000Y-5324000D01*
X1500000Y-1500000D02*
X1500000Y-7022000D01*
X9790000Y-5324000D02*
X9790000Y-4386000D01*
X2000000Y-3198000D02*
X2250000Y-3198000D01*
X2250000Y-2948000D02*
X2000000Y-2948000D01*
X5900000Y-6522000D02*
X5900000Y-6272000D01*
X8086000Y-5324000D02*
X7846000Y-5324000D01*
X7846000Y-4386000D02*
X9540000Y-4386000D01*
X3466000Y-3896000D02*
X3466000Y-3198000D01*
X5650000Y-5324000D02*
X5410000Y-5324000D01*
X5650000Y-2948000D02*
X5410000Y-2948000D01*
X7356000Y-5324000D02*
X7356000Y-4626000D01*
X3956000Y-6272000D02*
X3956000Y-5574000D01*
X2250000Y-2250000D02*
X2250000Y-2948000D01*
X7356000Y-3896000D02*
X7356000Y-3198000D01*
X5410000Y-5324000D02*
X5410000Y-4626000D01*
X5900000Y-5324000D02*
X5900000Y-4386000D01*
X4196000Y-2948000D02*
X3956000Y-2948000D01*
X2000000Y-5324000D02*
X2000000Y-4386000D01*
X8086000Y-4626000D02*
X8086000Y-5324000D01*
X3956000Y-2948000D02*
X3956000Y-2000000D01*
X4196000Y-4626000D02*
X4196000Y-5324000D01*
X2000000Y-2000000D02*
X3706000Y-2000000D01*
X3466000Y-4626000D02*
X2250000Y-4626000D01*
X5410000Y-3198000D02*
X5650000Y-3198000D01*
X10030000Y-3198000D02*
X10030000Y-3896000D01*
X9300000Y-5324000D02*
X9300000Y-4626000D01*
X9300000Y-2948000D02*
X9300000Y-2250000D01*
X5650000Y-4386000D02*
X5650000Y-5324000D01*
X4196000Y-2250000D02*
X4196000Y-2948000D01*
X7356000Y-2948000D02*
X7356000Y-2250000D01*
X4196000Y-5324000D02*
X3956000Y-5324000D01*
X5410000Y-2250000D02*
X4196000Y-2250000D01*
X9790000Y-2948000D02*
X9790000Y-2000000D01*
X2250000Y-3198000D02*
X2250000Y-3896000D01*
X7846000Y-5574000D02*
X8086000Y-5574000D01*
X6140000Y-5324000D02*
X5900000Y-5324000D01*
X3466000Y-5324000D02*
X3466000Y-4626000D01*
X2250000Y-4626000D02*
X2250000Y-5324000D01*
X4196000Y-6272000D02*
X5410000Y-6272000D01*
X2250000Y-4386000D02*
X3706000Y-4386000D01*
X5410000Y-2948000D02*
X5410000Y-2250000D01*
X3956000Y-4386000D02*
X5650000Y-4386000D01*
X4196000Y-3896000D02*
X5410000Y-3896000D01*
X1500000Y-7022000D02*
X11996000Y-7022000D01*
X8086000Y-6272000D02*
X9300000Y-6272000D01*
X3956000Y-5574000D02*
X4196000Y-5574000D01*
X10030000Y-4626000D02*
X10030000Y-5324000D01*
X10030000Y-2948000D02*
X9790000Y-2948000D01*
X3706000Y-2000000D02*
X3706000Y-2948000D01*
X9300000Y-3198000D02*
X9540000Y-3198000D01*
X7356000Y-2250000D02*
X6140000Y-2250000D01*
X9790000Y-5574000D02*
X10030000Y-5574000D01*
X8086000Y-3896000D02*
X9300000Y-3896000D01*
X10030000Y-5574000D02*
X10030000Y-6272000D01*
X3466000Y-2250000D02*
X2250000Y-2250000D01*
X3706000Y-5574000D02*
X3706000Y-6522000D01*
X6140000Y-3896000D02*
X7356000Y-3896000D01*
X11246000Y-3198000D02*
X11496000Y-3198000D01*
X3706000Y-4386000D02*
X3706000Y-5324000D01*
X5900000Y-2000000D02*
X7596000Y-2000000D01*
X7356000Y-4626000D02*
X6140000Y-4626000D01*
X9300000Y-6272000D02*
X9300000Y-5574000D01*
X11246000Y-5324000D02*
X11246000Y-4626000D01*
X7356000Y-6272000D02*
X7356000Y-5574000D01*
X6140000Y-5574000D02*
X6140000Y-6272000D01*
X7356000Y-3198000D02*
X7596000Y-3198000D01*
X4196000Y-3198000D02*
X4196000Y-3896000D01*
X10030000Y-3896000D02*
X11246000Y-3896000D01*
X9790000Y-6522000D02*
X9790000Y-6272000D01*
X5410000Y-5574000D02*
X5650000Y-5574000D01*
X5650000Y-2000000D02*
X5650000Y-2250000D01*
X9790000Y-3198000D02*
X10030000Y-3198000D01*
X5900000Y-4136000D02*
X5900000Y-3198000D01*
X11496000Y-3198000D02*
X11496000Y-4136000D01*
X3956000Y-5324000D02*
X3956000Y-4386000D01*
X7846000Y-6272000D02*
X7846000Y-5574000D01*
X5900000Y-4386000D02*
X7596000Y-4386000D01*
X11246000Y-4136000D02*
X9790000Y-4136000D01*
X3956000Y-2000000D02*
X5650000Y-2000000D01*
X11246000Y-3896000D02*
X11246000Y-3198000D01*
X7846000Y-6522000D02*
X7846000Y-6272000D01*
X5410000Y-6272000D02*
X5410000Y-5574000D01*
X6140000Y-2250000D02*
X6140000Y-2948000D01*
X9540000Y-2948000D02*
X9300000Y-2948000D01*
X7596000Y-5574000D02*
X7596000Y-6522000D01*
X9540000Y-4136000D02*
X7846000Y-4136000D01*
X9300000Y-3896000D02*
X9300000Y-3198000D01*
X8086000Y-2250000D02*
X8086000Y-2948000D01*
X3466000Y-6272000D02*
X3466000Y-5574000D01*
X7356000Y-5574000D02*
X7596000Y-5574000D01*
X3956000Y-6522000D02*
X3956000Y-6272000D01*
X3466000Y-2948000D02*
X3466000Y-2250000D01*
X2250000Y-3896000D02*
X3466000Y-3896000D01*
X7596000Y-5324000D02*
X7356000Y-5324000D01*
X9540000Y-3198000D02*
X9540000Y-4136000D01*
X11496000Y-5324000D02*
X11246000Y-5324000D01*
X9540000Y-5574000D02*
X9540000Y-6522000D01*
X5900000Y-5574000D02*
X6140000Y-5574000D01*
X11246000Y-5574000D02*
X11496000Y-5574000D01*
X7596000Y-6522000D02*
X5900000Y-6522000D01*
X3466000Y-3198000D02*
X3706000Y-3198000D01*
X9300000Y-2250000D02*
X8086000Y-2250000D01*
X5410000Y-3896000D02*
X5410000Y-3198000D01*
X5900000Y-2948000D02*
X5900000Y-2000000D01*
D11*
D12*
X2296500Y-2376000D02*
X2336500Y-2416000D01*
X2336500Y-2376000D02*
X2296500Y-2416000D01*
X2296500Y-4752000D02*
X2336500Y-4792000D01*
X2336500Y-4752000D02*
X2296500Y-4792000D01*
X2302500Y-2553000D02*
X2342500Y-2593000D01*
X2342500Y-2553000D02*
X2302500Y-2593000D01*
X2302500Y-2785000D02*
X2342500Y-2825000D01*
X2342500Y-2785000D02*
X2302500Y-2825000D01*
X2302500Y-4929000D02*
X2342500Y-4969000D01*
X2342500Y-4929000D02*
X2302500Y-4969000D01*
X2302500Y-5161000D02*
X2342500Y-5201000D01*
X2342500Y-5161000D02*
X2302500Y-5201000D01*
X2461500Y-3793000D02*
X2501500Y-3833000D01*
X2501500Y-3793000D02*
X2461500Y-3833000D01*
X2461500Y-6169000D02*
X2501500Y-6209000D01*
X2501500Y-6169000D02*
X2461500Y-6209000D01*
X2479500Y-3154000D02*
X2519500Y-3194000D01*
X2519500Y-3154000D02*
X2479500Y-3194000D01*
X2479500Y-5530000D02*
X2519500Y-5570000D01*
X2519500Y-5530000D02*
X2479500Y-5570000D01*
X2481500Y-3363000D02*
X2521500Y-3403000D01*
X2521500Y-3363000D02*
X2481500Y-3403000D01*
X2481500Y-5739000D02*
X2521500Y-5779000D01*
X2521500Y-5739000D02*
X2481500Y-5779000D01*
X2481500Y-3254000D02*
X2521500Y-3294000D01*
X2521500Y-3254000D02*
X2481500Y-3294000D01*
X2481500Y-5630000D02*
X2521500Y-5670000D01*
X2521500Y-5630000D02*
X2481500Y-5670000D01*
X2493500Y-2463000D02*
X2533500Y-2503000D01*
X2533500Y-2463000D02*
X2493500Y-2503000D01*
X2493500Y-4839000D02*
X2533500Y-4879000D01*
X2533500Y-4839000D02*
X2493500Y-4879000D01*
X2582500Y-3667000D02*
X2622500Y-3707000D01*
X2622500Y-3667000D02*
X2582500Y-3707000D01*
X2582500Y-6043000D02*
X2622500Y-6083000D01*
X2622500Y-6043000D02*
X2582500Y-6083000D01*
X2733500Y-2864000D02*
X2773500Y-2904000D01*
X2773500Y-2864000D02*
X2733500Y-2904000D01*
X2733500Y-5240000D02*
X2773500Y-5280000D01*
X2773500Y-5240000D02*
X2733500Y-5280000D01*
X2837500Y-3667000D02*
X2877500Y-3707000D01*
X2877500Y-3667000D02*
X2837500Y-3707000D01*
X2837500Y-6043000D02*
X2877500Y-6083000D01*
X2877500Y-6043000D02*
X2837500Y-6083000D01*
X2863500Y-3506000D02*
X2903500Y-3546000D01*
X2903500Y-3506000D02*
X2863500Y-3546000D01*
X2863500Y-5882000D02*
X2903500Y-5922000D01*
X2903500Y-5882000D02*
X2863500Y-5922000D01*
X2884500Y-2914000D02*
X2924500Y-2954000D01*
X2924500Y-2914000D02*
X2884500Y-2954000D01*
X2884500Y-5290000D02*
X2924500Y-5330000D01*
X2924500Y-5290000D02*
X2884500Y-5330000D01*
X2934500Y-3201000D02*
X2974500Y-3241000D01*
X2974500Y-3201000D02*
X2934500Y-3241000D01*
X2934500Y-5577000D02*
X2974500Y-5617000D01*
X2974500Y-5577000D02*
X2934500Y-5617000D01*
X2938500Y-3064000D02*
X2978500Y-3104000D01*
X2978500Y-3064000D02*
X2938500Y-3104000D01*
X2938500Y-5440000D02*
X2978500Y-5480000D01*
X2978500Y-5440000D02*
X2938500Y-5480000D01*
X2983500Y-2430000D02*
X3023500Y-2470000D01*
X3023500Y-2430000D02*
X2983500Y-2470000D01*
X2983500Y-4806000D02*
X3023500Y-4846000D01*
X3023500Y-4806000D02*
X2983500Y-4846000D01*
X2986500Y-2575000D02*
X3026500Y-2615000D01*
X3026500Y-2575000D02*
X2986500Y-2615000D01*
X2986500Y-4951000D02*
X3026500Y-4991000D01*
X3026500Y-4951000D02*
X2986500Y-4991000D01*
X3034500Y-3149000D02*
X3074500Y-3189000D01*
X3074500Y-3149000D02*
X3034500Y-3189000D01*
X3034500Y-5525000D02*
X3074500Y-5565000D01*
X3074500Y-5525000D02*
X3034500Y-5565000D01*
X3084500Y-2425000D02*
X3124500Y-2465000D01*
X3124500Y-2425000D02*
X3084500Y-2465000D01*
X3084500Y-4801000D02*
X3124500Y-4841000D01*
X3124500Y-4801000D02*
X3084500Y-4841000D01*
X3087500Y-2573000D02*
X3127500Y-2613000D01*
X3127500Y-2573000D02*
X3087500Y-2613000D01*
X3087500Y-4949000D02*
X3127500Y-4989000D01*
X3127500Y-4949000D02*
X3087500Y-4989000D01*
X3090500Y-3667000D02*
X3130500Y-3707000D01*
X3130500Y-3667000D02*
X3090500Y-3707000D01*
X3090500Y-6043000D02*
X3130500Y-6083000D01*
X3130500Y-6043000D02*
X3090500Y-6083000D01*
X3093500Y-2904000D02*
X3133500Y-2944000D01*
X3133500Y-2904000D02*
X3093500Y-2944000D01*
X3093500Y-5280000D02*
X3133500Y-5320000D01*
X3133500Y-5280000D02*
X3093500Y-5320000D01*
X3236500Y-3487000D02*
X3276500Y-3527000D01*
X3276500Y-3487000D02*
X3236500Y-3527000D01*
X3236500Y-5863000D02*
X3276500Y-5903000D01*
X3276500Y-5863000D02*
X3236500Y-5903000D01*
X3256500Y-2894000D02*
X3296500Y-2934000D01*
X3296500Y-2894000D02*
X3256500Y-2934000D01*
X3256500Y-5270000D02*
X3296500Y-5310000D01*
X3296500Y-5270000D02*
X3256500Y-5310000D01*
X3383000Y-2438000D02*
X3423000Y-2478000D01*
X3423000Y-2438000D02*
X3383000Y-2478000D01*
X3383000Y-2572350D02*
X3423000Y-2612350D01*
X3423000Y-2572350D02*
X3383000Y-2612350D01*
X3383000Y-4814000D02*
X3423000Y-4854000D01*
X3423000Y-4814000D02*
X3383000Y-4854000D01*
X3383000Y-4948350D02*
X3423000Y-4988350D01*
X3423000Y-4948350D02*
X3383000Y-4988350D01*
X4241500Y-2376000D02*
X4281500Y-2416000D01*
X4281500Y-2376000D02*
X4241500Y-2416000D01*
X4241500Y-4752000D02*
X4281500Y-4792000D01*
X4281500Y-4752000D02*
X4241500Y-4792000D01*
X4247500Y-2553000D02*
X4287500Y-2593000D01*
X4287500Y-2553000D02*
X4247500Y-2593000D01*
X4247500Y-2785000D02*
X4287500Y-2825000D01*
X4287500Y-2785000D02*
X4247500Y-2825000D01*
X4247500Y-4929000D02*
X4287500Y-4969000D01*
X4287500Y-4929000D02*
X4247500Y-4969000D01*
X4247500Y-5161000D02*
X4287500Y-5201000D01*
X4287500Y-5161000D02*
X4247500Y-5201000D01*
X4406500Y-3793000D02*
X4446500Y-3833000D01*
X4446500Y-3793000D02*
X4406500Y-3833000D01*
X4406500Y-6169000D02*
X4446500Y-6209000D01*
X4446500Y-6169000D02*
X4406500Y-6209000D01*
X4424500Y-3154000D02*
X4464500Y-3194000D01*
X4464500Y-3154000D02*
X4424500Y-3194000D01*
X4424500Y-5530000D02*
X4464500Y-5570000D01*
X4464500Y-5530000D02*
X4424500Y-5570000D01*
X4426500Y-3363000D02*
X4466500Y-3403000D01*
X4466500Y-3363000D02*
X4426500Y-3403000D01*
X4426500Y-5739000D02*
X4466500Y-5779000D01*
X4466500Y-5739000D02*
X4426500Y-5779000D01*
X4426500Y-3254000D02*
X4466500Y-3294000D01*
X4466500Y-3254000D02*
X4426500Y-3294000D01*
X4426500Y-5630000D02*
X4466500Y-5670000D01*
X4466500Y-5630000D02*
X4426500Y-5670000D01*
X4438500Y-2463000D02*
X4478500Y-2503000D01*
X4478500Y-2463000D02*
X4438500Y-2503000D01*
X4438500Y-4839000D02*
X4478500Y-4879000D01*
X4478500Y-4839000D02*
X4438500Y-4879000D01*
X4527500Y-3667000D02*
X4567500Y-3707000D01*
X4567500Y-3667000D02*
X4527500Y-3707000D01*
X4527500Y-6043000D02*
X4567500Y-6083000D01*
X4567500Y-6043000D02*
X4527500Y-6083000D01*
X4678500Y-2864000D02*
X4718500Y-2904000D01*
X4718500Y-2864000D02*
X4678500Y-2904000D01*
X4678500Y-5240000D02*
X4718500Y-5280000D01*
X4718500Y-5240000D02*
X4678500Y-5280000D01*
X4782500Y-3667000D02*
X4822500Y-3707000D01*
X4822500Y-3667000D02*
X4782500Y-3707000D01*
X4782500Y-6043000D02*
X4822500Y-6083000D01*
X4822500Y-6043000D02*
X4782500Y-6083000D01*
X4808500Y-3506000D02*
X4848500Y-3546000D01*
X4848500Y-3506000D02*
X4808500Y-3546000D01*
X4808500Y-5882000D02*
X4848500Y-5922000D01*
X4848500Y-5882000D02*
X4808500Y-5922000D01*
X4829500Y-2914000D02*
X4869500Y-2954000D01*
X4869500Y-2914000D02*
X4829500Y-2954000D01*
X4829500Y-5290000D02*
X4869500Y-5330000D01*
X4869500Y-5290000D02*
X4829500Y-5330000D01*
X4879500Y-3201000D02*
X4919500Y-3241000D01*
X4919500Y-3201000D02*
X4879500Y-3241000D01*
X4879500Y-5577000D02*
X4919500Y-5617000D01*
X4919500Y-5577000D02*
X4879500Y-5617000D01*
X4883500Y-3064000D02*
X4923500Y-3104000D01*
X4923500Y-3064000D02*
X4883500Y-3104000D01*
X4883500Y-5440000D02*
X4923500Y-5480000D01*
X4923500Y-5440000D02*
X4883500Y-5480000D01*
X4928500Y-2430000D02*
X4968500Y-2470000D01*
X4968500Y-2430000D02*
X4928500Y-2470000D01*
X4928500Y-4806000D02*
X4968500Y-4846000D01*
X4968500Y-4806000D02*
X4928500Y-4846000D01*
X4931500Y-2575000D02*
X4971500Y-2615000D01*
X4971500Y-2575000D02*
X4931500Y-2615000D01*
X4931500Y-4951000D02*
X4971500Y-4991000D01*
X4971500Y-4951000D02*
X4931500Y-4991000D01*
X4979500Y-3149000D02*
X5019500Y-3189000D01*
X5019500Y-3149000D02*
X4979500Y-3189000D01*
X4979500Y-5525000D02*
X5019500Y-5565000D01*
X5019500Y-5525000D02*
X4979500Y-5565000D01*
X5029500Y-2425000D02*
X5069500Y-2465000D01*
X5069500Y-2425000D02*
X5029500Y-2465000D01*
X5029500Y-4801000D02*
X5069500Y-4841000D01*
X5069500Y-4801000D02*
X5029500Y-4841000D01*
X5032500Y-2573000D02*
X5072500Y-2613000D01*
X5072500Y-2573000D02*
X5032500Y-2613000D01*
X5032500Y-4949000D02*
X5072500Y-4989000D01*
X5072500Y-4949000D02*
X5032500Y-4989000D01*
X5035500Y-3667000D02*
X5075500Y-3707000D01*
X5075500Y-3667000D02*
X5035500Y-3707000D01*
X5035500Y-6043000D02*
X5075500Y-6083000D01*
X5075500Y-6043000D02*
X5035500Y-6083000D01*
X5038500Y-2904000D02*
X5078500Y-2944000D01*
X5078500Y-2904000D02*
X5038500Y-2944000D01*
X5038500Y-5280000D02*
X5078500Y-5320000D01*
X5078500Y-5280000D02*
X5038500Y-5320000D01*
X5181500Y-3487000D02*
X5221500Y-3527000D01*
X5221500Y-3487000D02*
X5181500Y-3527000D01*
X5181500Y-5863000D02*
X5221500Y-5903000D01*
X5221500Y-5863000D02*
X5181500Y-5903000D01*
X5201500Y-2894000D02*
X5241500Y-2934000D01*
X5241500Y-2894000D02*
X5201500Y-2934000D01*
X5201500Y-5270000D02*
X5241500Y-5310000D01*
X5241500Y-5270000D02*
X5201500Y-5310000D01*
X5328000Y-2438000D02*
X5368000Y-2478000D01*
X5368000Y-2438000D02*
X5328000Y-2478000D01*
X5328000Y-2572350D02*
X5368000Y-2612350D01*
X5368000Y-2572350D02*
X5328000Y-2612350D01*
X5328000Y-4814000D02*
X5368000Y-4854000D01*
X5368000Y-4814000D02*
X5328000Y-4854000D01*
X5328000Y-4948350D02*
X5368000Y-4988350D01*
X5368000Y-4948350D02*
X5328000Y-4988350D01*
X6186500Y-2376000D02*
X6226500Y-2416000D01*
X6226500Y-2376000D02*
X6186500Y-2416000D01*
X6186500Y-4752000D02*
X6226500Y-4792000D01*
X6226500Y-4752000D02*
X6186500Y-4792000D01*
X6192500Y-2553000D02*
X6232500Y-2593000D01*
X6232500Y-2553000D02*
X6192500Y-2593000D01*
X6192500Y-2785000D02*
X6232500Y-2825000D01*
X6232500Y-2785000D02*
X6192500Y-2825000D01*
X6192500Y-4929000D02*
X6232500Y-4969000D01*
X6232500Y-4929000D02*
X6192500Y-4969000D01*
X6192500Y-5161000D02*
X6232500Y-5201000D01*
X6232500Y-5161000D02*
X6192500Y-5201000D01*
X6351500Y-3793000D02*
X6391500Y-3833000D01*
X6391500Y-3793000D02*
X6351500Y-3833000D01*
X6351500Y-6169000D02*
X6391500Y-6209000D01*
X6391500Y-6169000D02*
X6351500Y-6209000D01*
X6369500Y-3154000D02*
X6409500Y-3194000D01*
X6409500Y-3154000D02*
X6369500Y-3194000D01*
X6369500Y-5530000D02*
X6409500Y-5570000D01*
X6409500Y-5530000D02*
X6369500Y-5570000D01*
X6371500Y-3363000D02*
X6411500Y-3403000D01*
X6411500Y-3363000D02*
X6371500Y-3403000D01*
X6371500Y-5739000D02*
X6411500Y-5779000D01*
X6411500Y-5739000D02*
X6371500Y-5779000D01*
X6371500Y-3254000D02*
X6411500Y-3294000D01*
X6411500Y-3254000D02*
X6371500Y-3294000D01*
X6371500Y-5630000D02*
X6411500Y-5670000D01*
X6411500Y-5630000D02*
X6371500Y-5670000D01*
X6383500Y-2463000D02*
X6423500Y-2503000D01*
X6423500Y-2463000D02*
X6383500Y-2503000D01*
X6383500Y-4839000D02*
X6423500Y-4879000D01*
X6423500Y-4839000D02*
X6383500Y-4879000D01*
X6472500Y-3667000D02*
X6512500Y-3707000D01*
X6512500Y-3667000D02*
X6472500Y-3707000D01*
X6472500Y-6043000D02*
X6512500Y-6083000D01*
X6512500Y-6043000D02*
X6472500Y-6083000D01*
X6623500Y-2864000D02*
X6663500Y-2904000D01*
X6663500Y-2864000D02*
X6623500Y-2904000D01*
X6623500Y-5240000D02*
X6663500Y-5280000D01*
X6663500Y-5240000D02*
X6623500Y-5280000D01*
X6727500Y-3667000D02*
X6767500Y-3707000D01*
X6767500Y-3667000D02*
X6727500Y-3707000D01*
X6727500Y-6043000D02*
X6767500Y-6083000D01*
X6767500Y-6043000D02*
X6727500Y-6083000D01*
X6753500Y-3506000D02*
X6793500Y-3546000D01*
X6793500Y-3506000D02*
X6753500Y-3546000D01*
X6753500Y-5882000D02*
X6793500Y-5922000D01*
X6793500Y-5882000D02*
X6753500Y-5922000D01*
X6774500Y-2914000D02*
X6814500Y-2954000D01*
X6814500Y-2914000D02*
X6774500Y-2954000D01*
X6774500Y-5290000D02*
X6814500Y-5330000D01*
X6814500Y-5290000D02*
X6774500Y-5330000D01*
X6824500Y-3201000D02*
X6864500Y-3241000D01*
X6864500Y-3201000D02*
X6824500Y-3241000D01*
X6824500Y-5577000D02*
X6864500Y-5617000D01*
X6864500Y-5577000D02*
X6824500Y-5617000D01*
X6828500Y-3064000D02*
X6868500Y-3104000D01*
X6868500Y-3064000D02*
X6828500Y-3104000D01*
X6828500Y-5440000D02*
X6868500Y-5480000D01*
X6868500Y-5440000D02*
X6828500Y-5480000D01*
X6873500Y-2430000D02*
X6913500Y-2470000D01*
X6913500Y-2430000D02*
X6873500Y-2470000D01*
X6873500Y-4806000D02*
X6913500Y-4846000D01*
X6913500Y-4806000D02*
X6873500Y-4846000D01*
X6876500Y-2575000D02*
X6916500Y-2615000D01*
X6916500Y-2575000D02*
X6876500Y-2615000D01*
X6876500Y-4951000D02*
X6916500Y-4991000D01*
X6916500Y-4951000D02*
X6876500Y-4991000D01*
X6924500Y-3149000D02*
X6964500Y-3189000D01*
X6964500Y-3149000D02*
X6924500Y-3189000D01*
X6924500Y-5525000D02*
X6964500Y-5565000D01*
X6964500Y-5525000D02*
X6924500Y-5565000D01*
X6974500Y-2425000D02*
X7014500Y-2465000D01*
X7014500Y-2425000D02*
X6974500Y-2465000D01*
X6974500Y-4801000D02*
X7014500Y-4841000D01*
X7014500Y-4801000D02*
X6974500Y-4841000D01*
X6977500Y-2573000D02*
X7017500Y-2613000D01*
X7017500Y-2573000D02*
X6977500Y-2613000D01*
X6977500Y-4949000D02*
X7017500Y-4989000D01*
X7017500Y-4949000D02*
X6977500Y-4989000D01*
X6980500Y-3667000D02*
X7020500Y-3707000D01*
X7020500Y-3667000D02*
X6980500Y-3707000D01*
X6980500Y-6043000D02*
X7020500Y-6083000D01*
X7020500Y-6043000D02*
X6980500Y-6083000D01*
X6983500Y-2904000D02*
X7023500Y-2944000D01*
X7023500Y-2904000D02*
X6983500Y-2944000D01*
X6983500Y-5280000D02*
X7023500Y-5320000D01*
X7023500Y-5280000D02*
X6983500Y-5320000D01*
X7126500Y-3487000D02*
X7166500Y-3527000D01*
X7166500Y-3487000D02*
X7126500Y-3527000D01*
X7126500Y-5863000D02*
X7166500Y-5903000D01*
X7166500Y-5863000D02*
X7126500Y-5903000D01*
X7146500Y-2894000D02*
X7186500Y-2934000D01*
X7186500Y-2894000D02*
X7146500Y-2934000D01*
X7146500Y-5270000D02*
X7186500Y-5310000D01*
X7186500Y-5270000D02*
X7146500Y-5310000D01*
X7273000Y-2438000D02*
X7313000Y-2478000D01*
X7313000Y-2438000D02*
X7273000Y-2478000D01*
X7273000Y-2572350D02*
X7313000Y-2612350D01*
X7313000Y-2572350D02*
X7273000Y-2612350D01*
X7273000Y-4814000D02*
X7313000Y-4854000D01*
X7313000Y-4814000D02*
X7273000Y-4854000D01*
X7273000Y-4948350D02*
X7313000Y-4988350D01*
X7313000Y-4948350D02*
X7273000Y-4988350D01*
X8131500Y-2376000D02*
X8171500Y-2416000D01*
X8171500Y-2376000D02*
X8131500Y-2416000D01*
X8131500Y-4752000D02*
X8171500Y-4792000D01*
X8171500Y-4752000D02*
X8131500Y-4792000D01*
X8137500Y-2553000D02*
X8177500Y-2593000D01*
X8177500Y-2553000D02*
X8137500Y-2593000D01*
X8137500Y-2785000D02*
X8177500Y-2825000D01*
X8177500Y-2785000D02*
X8137500Y-2825000D01*
X8137500Y-4929000D02*
X8177500Y-4969000D01*
X8177500Y-4929000D02*
X8137500Y-4969000D01*
X8137500Y-5161000D02*
X8177500Y-5201000D01*
X8177500Y-5161000D02*
X8137500Y-5201000D01*
X8296500Y-3793000D02*
X8336500Y-3833000D01*
X8336500Y-3793000D02*
X8296500Y-3833000D01*
X8296500Y-6169000D02*
X8336500Y-6209000D01*
X8336500Y-6169000D02*
X8296500Y-6209000D01*
X8314500Y-3154000D02*
X8354500Y-3194000D01*
X8354500Y-3154000D02*
X8314500Y-3194000D01*
X8314500Y-5530000D02*
X8354500Y-5570000D01*
X8354500Y-5530000D02*
X8314500Y-5570000D01*
X8316500Y-3363000D02*
X8356500Y-3403000D01*
X8356500Y-3363000D02*
X8316500Y-3403000D01*
X8316500Y-5739000D02*
X8356500Y-5779000D01*
X8356500Y-5739000D02*
X8316500Y-5779000D01*
X8316500Y-3254000D02*
X8356500Y-3294000D01*
X8356500Y-3254000D02*
X8316500Y-3294000D01*
X8316500Y-5630000D02*
X8356500Y-5670000D01*
X8356500Y-5630000D02*
X8316500Y-5670000D01*
X8328500Y-2463000D02*
X8368500Y-2503000D01*
X8368500Y-2463000D02*
X8328500Y-2503000D01*
X8328500Y-4839000D02*
X8368500Y-4879000D01*
X8368500Y-4839000D02*
X8328500Y-4879000D01*
X8417500Y-3667000D02*
X8457500Y-3707000D01*
X8457500Y-3667000D02*
X8417500Y-3707000D01*
X8417500Y-6043000D02*
X8457500Y-6083000D01*
X8457500Y-6043000D02*
X8417500Y-6083000D01*
X8568500Y-2864000D02*
X8608500Y-2904000D01*
X8608500Y-2864000D02*
X8568500Y-2904000D01*
X8568500Y-5240000D02*
X8608500Y-5280000D01*
X8608500Y-5240000D02*
X8568500Y-5280000D01*
X8672500Y-3667000D02*
X8712500Y-3707000D01*
X8712500Y-3667000D02*
X8672500Y-3707000D01*
X8672500Y-6043000D02*
X8712500Y-6083000D01*
X8712500Y-6043000D02*
X8672500Y-6083000D01*
X8698500Y-3506000D02*
X8738500Y-3546000D01*
X8738500Y-3506000D02*
X8698500Y-3546000D01*
X8698500Y-5882000D02*
X8738500Y-5922000D01*
X8738500Y-5882000D02*
X8698500Y-5922000D01*
X8719500Y-2914000D02*
X8759500Y-2954000D01*
X8759500Y-2914000D02*
X8719500Y-2954000D01*
X8719500Y-5290000D02*
X8759500Y-5330000D01*
X8759500Y-5290000D02*
X8719500Y-5330000D01*
X8769500Y-3201000D02*
X8809500Y-3241000D01*
X8809500Y-3201000D02*
X8769500Y-3241000D01*
X8769500Y-5577000D02*
X8809500Y-5617000D01*
X8809500Y-5577000D02*
X8769500Y-5617000D01*
X8773500Y-3064000D02*
X8813500Y-3104000D01*
X8813500Y-3064000D02*
X8773500Y-3104000D01*
X8773500Y-5440000D02*
X8813500Y-5480000D01*
X8813500Y-5440000D02*
X8773500Y-5480000D01*
X8818500Y-2430000D02*
X8858500Y-2470000D01*
X8858500Y-2430000D02*
X8818500Y-2470000D01*
X8818500Y-4806000D02*
X8858500Y-4846000D01*
X8858500Y-4806000D02*
X8818500Y-4846000D01*
X8821500Y-2575000D02*
X8861500Y-2615000D01*
X8861500Y-2575000D02*
X8821500Y-2615000D01*
X8821500Y-4951000D02*
X8861500Y-4991000D01*
X8861500Y-4951000D02*
X8821500Y-4991000D01*
X8869500Y-3149000D02*
X8909500Y-3189000D01*
X8909500Y-3149000D02*
X8869500Y-3189000D01*
X8869500Y-5525000D02*
X8909500Y-5565000D01*
X8909500Y-5525000D02*
X8869500Y-5565000D01*
X8919500Y-2425000D02*
X8959500Y-2465000D01*
X8959500Y-2425000D02*
X8919500Y-2465000D01*
X8919500Y-4801000D02*
X8959500Y-4841000D01*
X8959500Y-4801000D02*
X8919500Y-4841000D01*
X8922500Y-2573000D02*
X8962500Y-2613000D01*
X8962500Y-2573000D02*
X8922500Y-2613000D01*
X8922500Y-4949000D02*
X8962500Y-4989000D01*
X8962500Y-4949000D02*
X8922500Y-4989000D01*
X8925500Y-3667000D02*
X8965500Y-3707000D01*
X8965500Y-3667000D02*
X8925500Y-3707000D01*
X8925500Y-6043000D02*
X8965500Y-6083000D01*
X8965500Y-6043000D02*
X8925500Y-6083000D01*
X8928500Y-2904000D02*
X8968500Y-2944000D01*
X8968500Y-2904000D02*
X8928500Y-2944000D01*
X8928500Y-5280000D02*
X8968500Y-5320000D01*
X8968500Y-5280000D02*
X8928500Y-5320000D01*
X9071500Y-3487000D02*
X9111500Y-3527000D01*
X9111500Y-3487000D02*
X9071500Y-3527000D01*
X9071500Y-5863000D02*
X9111500Y-5903000D01*
X9111500Y-5863000D02*
X9071500Y-5903000D01*
X9091500Y-2894000D02*
X9131500Y-2934000D01*
X9131500Y-2894000D02*
X9091500Y-2934000D01*
X9091500Y-5270000D02*
X9131500Y-5310000D01*
X9131500Y-5270000D02*
X9091500Y-5310000D01*
X9218000Y-2438000D02*
X9258000Y-2478000D01*
X9258000Y-2438000D02*
X9218000Y-2478000D01*
X9218000Y-2572350D02*
X9258000Y-2612350D01*
X9258000Y-2572350D02*
X9218000Y-2612350D01*
X9218000Y-4814000D02*
X9258000Y-4854000D01*
X9258000Y-4814000D02*
X9218000Y-4854000D01*
X9218000Y-4948350D02*
X9258000Y-4988350D01*
X9258000Y-4948350D02*
X9218000Y-4988350D01*
X10076500Y-2376000D02*
X10116500Y-2416000D01*
X10116500Y-2376000D02*
X10076500Y-2416000D01*
X10076500Y-4752000D02*
X10116500Y-4792000D01*
X10116500Y-4752000D02*
X10076500Y-4792000D01*
X10082500Y-2553000D02*
X10122500Y-2593000D01*
X10122500Y-2553000D02*
X10082500Y-2593000D01*
X10082500Y-2785000D02*
X10122500Y-2825000D01*
X10122500Y-2785000D02*
X10082500Y-2825000D01*
X10082500Y-4929000D02*
X10122500Y-4969000D01*
X10122500Y-4929000D02*
X10082500Y-4969000D01*
X10082500Y-5161000D02*
X10122500Y-5201000D01*
X10122500Y-5161000D02*
X10082500Y-5201000D01*
X10241500Y-3793000D02*
X10281500Y-3833000D01*
X10281500Y-3793000D02*
X10241500Y-3833000D01*
X10241500Y-6169000D02*
X10281500Y-6209000D01*
X10281500Y-6169000D02*
X10241500Y-6209000D01*
X10259500Y-3154000D02*
X10299500Y-3194000D01*
X10299500Y-3154000D02*
X10259500Y-3194000D01*
X10259500Y-5530000D02*
X10299500Y-5570000D01*
X10299500Y-5530000D02*
X10259500Y-5570000D01*
X10261500Y-3363000D02*
X10301500Y-3403000D01*
X10301500Y-3363000D02*
X10261500Y-3403000D01*
X10261500Y-5739000D02*
X10301500Y-5779000D01*
X10301500Y-5739000D02*
X10261500Y-5779000D01*
X10261500Y-3254000D02*
X10301500Y-3294000D01*
X10301500Y-3254000D02*
X10261500Y-3294000D01*
X10261500Y-5630000D02*
X10301500Y-5670000D01*
X10301500Y-5630000D02*
X10261500Y-5670000D01*
X10273500Y-2463000D02*
X10313500Y-2503000D01*
X10313500Y-2463000D02*
X10273500Y-2503000D01*
X10273500Y-4839000D02*
X10313500Y-4879000D01*
X10313500Y-4839000D02*
X10273500Y-4879000D01*
X10362500Y-3667000D02*
X10402500Y-3707000D01*
X10402500Y-3667000D02*
X10362500Y-3707000D01*
X10362500Y-6043000D02*
X10402500Y-6083000D01*
X10402500Y-6043000D02*
X10362500Y-6083000D01*
X10513500Y-2864000D02*
X10553500Y-2904000D01*
X10553500Y-2864000D02*
X10513500Y-2904000D01*
X10513500Y-5240000D02*
X10553500Y-5280000D01*
X10553500Y-5240000D02*
X10513500Y-5280000D01*
X10617500Y-3667000D02*
X10657500Y-3707000D01*
X10657500Y-3667000D02*
X10617500Y-3707000D01*
X10617500Y-6043000D02*
X10657500Y-6083000D01*
X10657500Y-6043000D02*
X10617500Y-6083000D01*
X10643500Y-3506000D02*
X10683500Y-3546000D01*
X10683500Y-3506000D02*
X10643500Y-3546000D01*
X10643500Y-5882000D02*
X10683500Y-5922000D01*
X10683500Y-5882000D02*
X10643500Y-5922000D01*
X10664500Y-2914000D02*
X10704500Y-2954000D01*
X10704500Y-2914000D02*
X10664500Y-2954000D01*
X10664500Y-5290000D02*
X10704500Y-5330000D01*
X10704500Y-5290000D02*
X10664500Y-5330000D01*
X10714500Y-3201000D02*
X10754500Y-3241000D01*
X10754500Y-3201000D02*
X10714500Y-3241000D01*
X10714500Y-5577000D02*
X10754500Y-5617000D01*
X10754500Y-5577000D02*
X10714500Y-5617000D01*
X10718500Y-3064000D02*
X10758500Y-3104000D01*
X10758500Y-3064000D02*
X10718500Y-3104000D01*
X10718500Y-5440000D02*
X10758500Y-5480000D01*
X10758500Y-5440000D02*
X10718500Y-5480000D01*
X10763500Y-2430000D02*
X10803500Y-2470000D01*
X10803500Y-2430000D02*
X10763500Y-2470000D01*
X10763500Y-4806000D02*
X10803500Y-4846000D01*
X10803500Y-4806000D02*
X10763500Y-4846000D01*
X10766500Y-2575000D02*
X10806500Y-2615000D01*
X10806500Y-2575000D02*
X10766500Y-2615000D01*
X10766500Y-4951000D02*
X10806500Y-4991000D01*
X10806500Y-4951000D02*
X10766500Y-4991000D01*
X10814500Y-3149000D02*
X10854500Y-3189000D01*
X10854500Y-3149000D02*
X10814500Y-3189000D01*
X10814500Y-5525000D02*
X10854500Y-5565000D01*
X10854500Y-5525000D02*
X10814500Y-5565000D01*
X10864500Y-2425000D02*
X10904500Y-2465000D01*
X10904500Y-2425000D02*
X10864500Y-2465000D01*
X10864500Y-4801000D02*
X10904500Y-4841000D01*
X10904500Y-4801000D02*
X10864500Y-4841000D01*
X10867500Y-2573000D02*
X10907500Y-2613000D01*
X10907500Y-2573000D02*
X10867500Y-2613000D01*
X10867500Y-4949000D02*
X10907500Y-4989000D01*
X10907500Y-4949000D02*
X10867500Y-4989000D01*
X10870500Y-3667000D02*
X10910500Y-3707000D01*
X10910500Y-3667000D02*
X10870500Y-3707000D01*
X10870500Y-6043000D02*
X10910500Y-6083000D01*
X10910500Y-6043000D02*
X10870500Y-6083000D01*
X10873500Y-2904000D02*
X10913500Y-2944000D01*
X10913500Y-2904000D02*
X10873500Y-2944000D01*
X10873500Y-5280000D02*
X10913500Y-5320000D01*
X10913500Y-5280000D02*
X10873500Y-5320000D01*
X11016500Y-3487000D02*
X11056500Y-3527000D01*
X11056500Y-3487000D02*
X11016500Y-3527000D01*
X11016500Y-5863000D02*
X11056500Y-5903000D01*
X11056500Y-5863000D02*
X11016500Y-5903000D01*
X11036500Y-2894000D02*
X11076500Y-2934000D01*
X11076500Y-2894000D02*
X11036500Y-2934000D01*
X11036500Y-5270000D02*
X11076500Y-5310000D01*
X11076500Y-5270000D02*
X11036500Y-5310000D01*
X11163000Y-2438000D02*
X11203000Y-2478000D01*
X11203000Y-2438000D02*
X11163000Y-2478000D01*
X11163000Y-2572350D02*
X11203000Y-2612350D01*
X11203000Y-2572350D02*
X11163000Y-2612350D01*
X11163000Y-4814000D02*
X11203000Y-4854000D01*
X11203000Y-4814000D02*
X11163000Y-4854000D01*
X11163000Y-4948350D02*
X11203000Y-4988350D01*
X11203000Y-4948350D02*
X11163000Y-4988350D01*
D13*
X2652500Y-3896000D02*
G75*
G03*
X2652500Y-3896000I-50000J0D01*
G01*
X2652500Y-6272000D02*
G75*
G03*
X2652500Y-6272000I-50000J0D01*
G01*
X2906500Y-3896000D02*
G75*
G03*
X2906500Y-3896000I-50000J0D01*
G01*
X2906500Y-6272000D02*
G75*
G03*
X2906500Y-6272000I-50000J0D01*
G01*
X3160500Y-3896000D02*
G75*
G03*
X3160500Y-3896000I-50000J0D01*
G01*
X3160500Y-6272000D02*
G75*
G03*
X3160500Y-6272000I-50000J0D01*
G01*
X4597500Y-3896000D02*
G75*
G03*
X4597500Y-3896000I-50000J0D01*
G01*
X4597500Y-6272000D02*
G75*
G03*
X4597500Y-6272000I-50000J0D01*
G01*
X4851500Y-3896000D02*
G75*
G03*
X4851500Y-3896000I-50000J0D01*
G01*
X4851500Y-6272000D02*
G75*
G03*
X4851500Y-6272000I-50000J0D01*
G01*
X5105500Y-3896000D02*
G75*
G03*
X5105500Y-3896000I-50000J0D01*
G01*
X5105500Y-6272000D02*
G75*
G03*
X5105500Y-6272000I-50000J0D01*
G01*
X6542500Y-3896000D02*
G75*
G03*
X6542500Y-3896000I-50000J0D01*
G01*
X6542500Y-6272000D02*
G75*
G03*
X6542500Y-6272000I-50000J0D01*
G01*
X6796500Y-3896000D02*
G75*
G03*
X6796500Y-3896000I-50000J0D01*
G01*
X6796500Y-6272000D02*
G75*
G03*
X6796500Y-6272000I-50000J0D01*
G01*
X7050500Y-3896000D02*
G75*
G03*
X7050500Y-3896000I-50000J0D01*
G01*
X7050500Y-6272000D02*
G75*
G03*
X7050500Y-6272000I-50000J0D01*
G01*
X8487500Y-3896000D02*
G75*
G03*
X8487500Y-3896000I-50000J0D01*
G01*
X8487500Y-6272000D02*
G75*
G03*
X8487500Y-6272000I-50000J0D01*
G01*
X8741500Y-3896000D02*
G75*
G03*
X8741500Y-3896000I-50000J0D01*
G01*
X8741500Y-6272000D02*
G75*
G03*
X8741500Y-6272000I-50000J0D01*
G01*
X8995500Y-3896000D02*
G75*
G03*
X8995500Y-3896000I-50000J0D01*
G01*
X8995500Y-6272000D02*
G75*
G03*
X8995500Y-6272000I-50000J0D01*
G01*
X10432500Y-3896000D02*
G75*
G03*
X10432500Y-3896000I-50000J0D01*
G01*
X10432500Y-6272000D02*
G75*
G03*
X10432500Y-6272000I-50000J0D01*
G01*
X10686500Y-3896000D02*
G75*
G03*
X10686500Y-3896000I-50000J0D01*
G01*
X10686500Y-6272000D02*
G75*
G03*
X10686500Y-6272000I-50000J0D01*
G01*
X10940500Y-3896000D02*
G75*
G03*
X10940500Y-3896000I-50000J0D01*
G01*
X10940500Y-6272000D02*
G75*
G03*
X10940500Y-6272000I-50000J0D01*
G01*
D11*
X1752619Y-7337476D02*
X1752619Y-7137476D01*
X1800238Y-7137476D01*
X1828809Y-7147000D01*
X1847857Y-7166048D01*
X1857381Y-7185095D01*
X1866905Y-7223190D01*
X1866905Y-7251762D01*
X1857381Y-7289857D01*
X1847857Y-7308905D01*
X1828809Y-7327952D01*
X1800238Y-7337476D01*
X1752619Y-7337476D01*
X1952619Y-7337476D02*
X1952619Y-7204143D01*
X1952619Y-7242238D02*
X1962143Y-7223190D01*
X1971667Y-7213667D01*
X1990714Y-7204143D01*
X2009762Y-7204143D01*
X2076428Y-7337476D02*
X2076428Y-7204143D01*
X2076428Y-7137476D02*
X2066905Y-7147000D01*
X2076428Y-7156524D01*
X2085952Y-7147000D01*
X2076428Y-7137476D01*
X2076428Y-7156524D01*
X2200238Y-7337476D02*
X2181190Y-7327952D01*
X2171667Y-7308905D01*
X2171667Y-7137476D01*
X2305000Y-7337476D02*
X2285952Y-7327952D01*
X2276429Y-7308905D01*
X2276429Y-7137476D01*
X2533571Y-7337476D02*
X2533571Y-7137476D01*
X2600238Y-7280333D01*
X2666905Y-7137476D01*
X2666905Y-7337476D01*
X2847857Y-7337476D02*
X2847857Y-7232714D01*
X2838333Y-7213667D01*
X2819286Y-7204143D01*
X2781190Y-7204143D01*
X2762143Y-7213667D01*
X2847857Y-7327952D02*
X2828809Y-7337476D01*
X2781190Y-7337476D01*
X2762143Y-7327952D01*
X2752619Y-7308905D01*
X2752619Y-7289857D01*
X2762143Y-7270809D01*
X2781190Y-7261286D01*
X2828809Y-7261286D01*
X2847857Y-7251762D01*
X2943095Y-7204143D02*
X2943095Y-7404143D01*
X2943095Y-7213667D02*
X2962143Y-7204143D01*
X3000238Y-7204143D01*
X3019286Y-7213667D01*
X3028809Y-7223190D01*
X3038333Y-7242238D01*
X3038333Y-7299381D01*
X3028809Y-7318428D01*
X3019286Y-7327952D01*
X3000238Y-7337476D01*
X2962143Y-7337476D01*
X2943095Y-7327952D01*
X3124048Y-7318428D02*
X3133571Y-7327952D01*
X3124048Y-7337476D01*
X3114524Y-7327952D01*
X3124048Y-7318428D01*
X3124048Y-7337476D01*
X3124048Y-7213667D02*
X3133571Y-7223190D01*
X3124048Y-7232714D01*
X3114524Y-7223190D01*
X3124048Y-7213667D01*
X3124048Y-7232714D01*
D12*
X1455000Y-7647000D02*
X1495000Y-7687000D01*
X1495000Y-7647000D02*
X1455000Y-7687000D01*
D11*
X1790714Y-7557476D02*
X1809762Y-7557476D01*
X1828809Y-7567000D01*
X1838333Y-7576524D01*
X1847857Y-7595571D01*
X1857381Y-7633667D01*
X1857381Y-7681286D01*
X1847857Y-7719381D01*
X1838333Y-7738428D01*
X1828809Y-7747952D01*
X1809762Y-7757476D01*
X1790714Y-7757476D01*
X1771667Y-7747952D01*
X1762143Y-7738428D01*
X1752619Y-7719381D01*
X1743095Y-7681286D01*
X1743095Y-7633667D01*
X1752619Y-7595571D01*
X1762143Y-7576524D01*
X1771667Y-7567000D01*
X1790714Y-7557476D01*
X1943095Y-7738428D02*
X1952619Y-7747952D01*
X1943095Y-7757476D01*
X1933571Y-7747952D01*
X1943095Y-7738428D01*
X1943095Y-7757476D01*
X2124048Y-7624143D02*
X2124048Y-7757476D01*
X2076428Y-7547952D02*
X2028809Y-7690809D01*
X2152619Y-7690809D01*
X2266905Y-7557476D02*
X2285952Y-7557476D01*
X2305000Y-7567000D01*
X2314524Y-7576524D01*
X2324048Y-7595571D01*
X2333571Y-7633667D01*
X2333571Y-7681286D01*
X2324048Y-7719381D01*
X2314524Y-7738428D01*
X2305000Y-7747952D01*
X2285952Y-7757476D01*
X2266905Y-7757476D01*
X2247857Y-7747952D01*
X2238333Y-7738428D01*
X2228810Y-7719381D01*
X2219286Y-7681286D01*
X2219286Y-7633667D01*
X2228810Y-7595571D01*
X2238333Y-7576524D01*
X2247857Y-7567000D01*
X2266905Y-7557476D01*
X2457381Y-7557476D02*
X2476429Y-7557476D01*
X2495476Y-7567000D01*
X2505000Y-7576524D01*
X2514524Y-7595571D01*
X2524048Y-7633667D01*
X2524048Y-7681286D01*
X2514524Y-7719381D01*
X2505000Y-7738428D01*
X2495476Y-7747952D01*
X2476429Y-7757476D01*
X2457381Y-7757476D01*
X2438333Y-7747952D01*
X2428810Y-7738428D01*
X2419286Y-7719381D01*
X2409762Y-7681286D01*
X2409762Y-7633667D01*
X2419286Y-7595571D01*
X2428810Y-7576524D01*
X2438333Y-7567000D01*
X2457381Y-7557476D01*
X2609762Y-7757476D02*
X2609762Y-7624143D01*
X2609762Y-7643190D02*
X2619286Y-7633667D01*
X2638333Y-7624143D01*
X2666905Y-7624143D01*
X2685952Y-7633667D01*
X2695476Y-7652714D01*
X2695476Y-7757476D01*
X2695476Y-7652714D02*
X2705000Y-7633667D01*
X2724048Y-7624143D01*
X2752619Y-7624143D01*
X2771667Y-7633667D01*
X2781190Y-7652714D01*
X2781190Y-7757476D01*
X2876428Y-7757476D02*
X2876428Y-7624143D01*
X2876428Y-7643190D02*
X2885952Y-7633667D01*
X2905000Y-7624143D01*
X2933571Y-7624143D01*
X2952619Y-7633667D01*
X2962143Y-7652714D01*
X2962143Y-7757476D01*
X2962143Y-7652714D02*
X2971667Y-7633667D01*
X2990714Y-7624143D01*
X3019286Y-7624143D01*
X3038333Y-7633667D01*
X3047857Y-7652714D01*
X3047857Y-7757476D01*
X3438333Y-7547952D02*
X3266905Y-7805095D01*
X3695476Y-7557476D02*
X3714524Y-7557476D01*
X3733571Y-7567000D01*
X3743095Y-7576524D01*
X3752619Y-7595571D01*
X3762143Y-7633667D01*
X3762143Y-7681286D01*
X3752619Y-7719381D01*
X3743095Y-7738428D01*
X3733571Y-7747952D01*
X3714524Y-7757476D01*
X3695476Y-7757476D01*
X3676428Y-7747952D01*
X3666905Y-7738428D01*
X3657381Y-7719381D01*
X3647857Y-7681286D01*
X3647857Y-7633667D01*
X3657381Y-7595571D01*
X3666905Y-7576524D01*
X3676428Y-7567000D01*
X3695476Y-7557476D01*
X3847857Y-7738428D02*
X3857381Y-7747952D01*
X3847857Y-7757476D01*
X3838333Y-7747952D01*
X3847857Y-7738428D01*
X3847857Y-7757476D01*
X3981190Y-7557476D02*
X4000238Y-7557476D01*
X4019286Y-7567000D01*
X4028809Y-7576524D01*
X4038333Y-7595571D01*
X4047857Y-7633667D01*
X4047857Y-7681286D01*
X4038333Y-7719381D01*
X4028809Y-7738428D01*
X4019286Y-7747952D01*
X4000238Y-7757476D01*
X3981190Y-7757476D01*
X3962143Y-7747952D01*
X3952619Y-7738428D01*
X3943095Y-7719381D01*
X3933571Y-7681286D01*
X3933571Y-7633667D01*
X3943095Y-7595571D01*
X3952619Y-7576524D01*
X3962143Y-7567000D01*
X3981190Y-7557476D01*
X4238333Y-7757476D02*
X4124048Y-7757476D01*
X4181190Y-7757476D02*
X4181190Y-7557476D01*
X4162143Y-7586048D01*
X4143095Y-7605095D01*
X4124048Y-7614619D01*
X4419286Y-7557476D02*
X4324048Y-7557476D01*
X4314524Y-7652714D01*
X4324048Y-7643190D01*
X4343095Y-7633667D01*
X4390714Y-7633667D01*
X4409762Y-7643190D01*
X4419286Y-7652714D01*
X4428810Y-7671762D01*
X4428810Y-7719381D01*
X4419286Y-7738428D01*
X4409762Y-7747952D01*
X4390714Y-7757476D01*
X4343095Y-7757476D01*
X4324048Y-7747952D01*
X4314524Y-7738428D01*
X4495476Y-7557476D02*
X4628810Y-7557476D01*
X4543095Y-7757476D01*
X4695476Y-7557476D02*
X4695476Y-7595571D01*
X4771667Y-7557476D02*
X4771667Y-7595571D01*
X5066905Y-7833667D02*
X5057381Y-7824143D01*
X5038333Y-7795571D01*
X5028810Y-7776524D01*
X5019286Y-7747952D01*
X5009762Y-7700333D01*
X5009762Y-7662238D01*
X5019286Y-7614619D01*
X5028810Y-7586048D01*
X5038333Y-7567000D01*
X5057381Y-7538428D01*
X5066905Y-7528905D01*
X5133571Y-7576524D02*
X5143095Y-7567000D01*
X5162143Y-7557476D01*
X5209762Y-7557476D01*
X5228810Y-7567000D01*
X5238333Y-7576524D01*
X5247857Y-7595571D01*
X5247857Y-7614619D01*
X5238333Y-7643190D01*
X5124048Y-7757476D01*
X5247857Y-7757476D01*
X5419286Y-7557476D02*
X5381190Y-7557476D01*
X5362143Y-7567000D01*
X5352619Y-7576524D01*
X5333571Y-7605095D01*
X5324048Y-7643190D01*
X5324048Y-7719381D01*
X5333571Y-7738428D01*
X5343095Y-7747952D01*
X5362143Y-7757476D01*
X5400238Y-7757476D01*
X5419286Y-7747952D01*
X5428810Y-7738428D01*
X5438333Y-7719381D01*
X5438333Y-7671762D01*
X5428810Y-7652714D01*
X5419286Y-7643190D01*
X5400238Y-7633667D01*
X5362143Y-7633667D01*
X5343095Y-7643190D01*
X5333571Y-7652714D01*
X5324048Y-7671762D01*
X5562143Y-7557476D02*
X5581190Y-7557476D01*
X5600238Y-7567000D01*
X5609762Y-7576524D01*
X5619286Y-7595571D01*
X5628809Y-7633667D01*
X5628809Y-7681286D01*
X5619286Y-7719381D01*
X5609762Y-7738428D01*
X5600238Y-7747952D01*
X5581190Y-7757476D01*
X5562143Y-7757476D01*
X5543095Y-7747952D01*
X5533571Y-7738428D01*
X5524048Y-7719381D01*
X5514524Y-7681286D01*
X5514524Y-7633667D01*
X5524048Y-7595571D01*
X5533571Y-7576524D01*
X5543095Y-7567000D01*
X5562143Y-7557476D01*
X5866905Y-7757476D02*
X5866905Y-7557476D01*
X5952619Y-7757476D02*
X5952619Y-7652714D01*
X5943095Y-7633667D01*
X5924048Y-7624143D01*
X5895476Y-7624143D01*
X5876428Y-7633667D01*
X5866905Y-7643190D01*
X6076428Y-7757476D02*
X6057381Y-7747952D01*
X6047857Y-7738428D01*
X6038333Y-7719381D01*
X6038333Y-7662238D01*
X6047857Y-7643190D01*
X6057381Y-7633667D01*
X6076428Y-7624143D01*
X6105000Y-7624143D01*
X6124048Y-7633667D01*
X6133571Y-7643190D01*
X6143095Y-7662238D01*
X6143095Y-7719381D01*
X6133571Y-7738428D01*
X6124048Y-7747952D01*
X6105000Y-7757476D01*
X6076428Y-7757476D01*
X6257381Y-7757476D02*
X6238333Y-7747952D01*
X6228809Y-7728905D01*
X6228809Y-7557476D01*
X6409762Y-7747952D02*
X6390714Y-7757476D01*
X6352619Y-7757476D01*
X6333571Y-7747952D01*
X6324048Y-7728905D01*
X6324048Y-7652714D01*
X6333571Y-7633667D01*
X6352619Y-7624143D01*
X6390714Y-7624143D01*
X6409762Y-7633667D01*
X6419286Y-7652714D01*
X6419286Y-7671762D01*
X6324048Y-7690809D01*
X6495476Y-7747952D02*
X6514524Y-7757476D01*
X6552619Y-7757476D01*
X6571667Y-7747952D01*
X6581190Y-7728905D01*
X6581190Y-7719381D01*
X6571667Y-7700333D01*
X6552619Y-7690809D01*
X6524048Y-7690809D01*
X6505000Y-7681286D01*
X6495476Y-7662238D01*
X6495476Y-7652714D01*
X6505000Y-7633667D01*
X6524048Y-7624143D01*
X6552619Y-7624143D01*
X6571667Y-7633667D01*
X6647857Y-7833667D02*
X6657381Y-7824143D01*
X6676428Y-7795571D01*
X6685952Y-7776524D01*
X6695476Y-7747952D01*
X6705000Y-7700333D01*
X6705000Y-7662238D01*
X6695476Y-7614619D01*
X6685952Y-7586048D01*
X6676428Y-7567000D01*
X6657381Y-7538428D01*
X6647857Y-7528905D01*
D13*
X1495000Y-7931000D02*
G75*
G03*
X1495000Y-7931000I-50000J0D01*
G01*
D11*
X1857381Y-8021476D02*
X1743095Y-8021476D01*
X1800238Y-8021476D02*
X1800238Y-7821476D01*
X1781190Y-7850048D01*
X1762143Y-7869095D01*
X1743095Y-7878619D01*
X1943095Y-8002428D02*
X1952619Y-8011952D01*
X1943095Y-8021476D01*
X1933571Y-8011952D01*
X1943095Y-8002428D01*
X1943095Y-8021476D01*
X2076428Y-7821476D02*
X2095476Y-7821476D01*
X2114524Y-7831000D01*
X2124048Y-7840524D01*
X2133571Y-7859571D01*
X2143095Y-7897667D01*
X2143095Y-7945286D01*
X2133571Y-7983381D01*
X2124048Y-8002428D01*
X2114524Y-8011952D01*
X2095476Y-8021476D01*
X2076428Y-8021476D01*
X2057381Y-8011952D01*
X2047857Y-8002428D01*
X2038333Y-7983381D01*
X2028809Y-7945286D01*
X2028809Y-7897667D01*
X2038333Y-7859571D01*
X2047857Y-7840524D01*
X2057381Y-7831000D01*
X2076428Y-7821476D01*
X2266905Y-7821476D02*
X2285952Y-7821476D01*
X2305000Y-7831000D01*
X2314524Y-7840524D01*
X2324048Y-7859571D01*
X2333571Y-7897667D01*
X2333571Y-7945286D01*
X2324048Y-7983381D01*
X2314524Y-8002428D01*
X2305000Y-8011952D01*
X2285952Y-8021476D01*
X2266905Y-8021476D01*
X2247857Y-8011952D01*
X2238333Y-8002428D01*
X2228810Y-7983381D01*
X2219286Y-7945286D01*
X2219286Y-7897667D01*
X2228810Y-7859571D01*
X2238333Y-7840524D01*
X2247857Y-7831000D01*
X2266905Y-7821476D01*
X2457381Y-7821476D02*
X2476429Y-7821476D01*
X2495476Y-7831000D01*
X2505000Y-7840524D01*
X2514524Y-7859571D01*
X2524048Y-7897667D01*
X2524048Y-7945286D01*
X2514524Y-7983381D01*
X2505000Y-8002428D01*
X2495476Y-8011952D01*
X2476429Y-8021476D01*
X2457381Y-8021476D01*
X2438333Y-8011952D01*
X2428810Y-8002428D01*
X2419286Y-7983381D01*
X2409762Y-7945286D01*
X2409762Y-7897667D01*
X2419286Y-7859571D01*
X2428810Y-7840524D01*
X2438333Y-7831000D01*
X2457381Y-7821476D01*
X2609762Y-8021476D02*
X2609762Y-7888143D01*
X2609762Y-7907190D02*
X2619286Y-7897667D01*
X2638333Y-7888143D01*
X2666905Y-7888143D01*
X2685952Y-7897667D01*
X2695476Y-7916714D01*
X2695476Y-8021476D01*
X2695476Y-7916714D02*
X2705000Y-7897667D01*
X2724048Y-7888143D01*
X2752619Y-7888143D01*
X2771667Y-7897667D01*
X2781190Y-7916714D01*
X2781190Y-8021476D01*
X2876428Y-8021476D02*
X2876428Y-7888143D01*
X2876428Y-7907190D02*
X2885952Y-7897667D01*
X2905000Y-7888143D01*
X2933571Y-7888143D01*
X2952619Y-7897667D01*
X2962143Y-7916714D01*
X2962143Y-8021476D01*
X2962143Y-7916714D02*
X2971667Y-7897667D01*
X2990714Y-7888143D01*
X3019286Y-7888143D01*
X3038333Y-7897667D01*
X3047857Y-7916714D01*
X3047857Y-8021476D01*
X3438333Y-7811952D02*
X3266905Y-8069095D01*
X3695476Y-7821476D02*
X3714524Y-7821476D01*
X3733571Y-7831000D01*
X3743095Y-7840524D01*
X3752619Y-7859571D01*
X3762143Y-7897667D01*
X3762143Y-7945286D01*
X3752619Y-7983381D01*
X3743095Y-8002428D01*
X3733571Y-8011952D01*
X3714524Y-8021476D01*
X3695476Y-8021476D01*
X3676428Y-8011952D01*
X3666905Y-8002428D01*
X3657381Y-7983381D01*
X3647857Y-7945286D01*
X3647857Y-7897667D01*
X3657381Y-7859571D01*
X3666905Y-7840524D01*
X3676428Y-7831000D01*
X3695476Y-7821476D01*
X3847857Y-8002428D02*
X3857381Y-8011952D01*
X3847857Y-8021476D01*
X3838333Y-8011952D01*
X3847857Y-8002428D01*
X3847857Y-8021476D01*
X3981190Y-7821476D02*
X4000238Y-7821476D01*
X4019286Y-7831000D01*
X4028809Y-7840524D01*
X4038333Y-7859571D01*
X4047857Y-7897667D01*
X4047857Y-7945286D01*
X4038333Y-7983381D01*
X4028809Y-8002428D01*
X4019286Y-8011952D01*
X4000238Y-8021476D01*
X3981190Y-8021476D01*
X3962143Y-8011952D01*
X3952619Y-8002428D01*
X3943095Y-7983381D01*
X3933571Y-7945286D01*
X3933571Y-7897667D01*
X3943095Y-7859571D01*
X3952619Y-7840524D01*
X3962143Y-7831000D01*
X3981190Y-7821476D01*
X4114524Y-7821476D02*
X4238333Y-7821476D01*
X4171667Y-7897667D01*
X4200238Y-7897667D01*
X4219286Y-7907190D01*
X4228810Y-7916714D01*
X4238333Y-7935762D01*
X4238333Y-7983381D01*
X4228810Y-8002428D01*
X4219286Y-8011952D01*
X4200238Y-8021476D01*
X4143095Y-8021476D01*
X4124048Y-8011952D01*
X4114524Y-8002428D01*
X4333571Y-8021476D02*
X4371667Y-8021476D01*
X4390714Y-8011952D01*
X4400238Y-8002428D01*
X4419286Y-7973857D01*
X4428810Y-7935762D01*
X4428810Y-7859571D01*
X4419286Y-7840524D01*
X4409762Y-7831000D01*
X4390714Y-7821476D01*
X4352619Y-7821476D01*
X4333571Y-7831000D01*
X4324048Y-7840524D01*
X4314524Y-7859571D01*
X4314524Y-7907190D01*
X4324048Y-7926238D01*
X4333571Y-7935762D01*
X4352619Y-7945286D01*
X4390714Y-7945286D01*
X4409762Y-7935762D01*
X4419286Y-7926238D01*
X4428810Y-7907190D01*
X4600238Y-7888143D02*
X4600238Y-8021476D01*
X4552619Y-7811952D02*
X4505000Y-7954809D01*
X4628810Y-7954809D01*
X4695476Y-7821476D02*
X4695476Y-7859571D01*
X4771667Y-7821476D02*
X4771667Y-7859571D01*
X5066905Y-8097667D02*
X5057381Y-8088143D01*
X5038333Y-8059571D01*
X5028810Y-8040524D01*
X5019286Y-8011952D01*
X5009762Y-7964333D01*
X5009762Y-7926238D01*
X5019286Y-7878619D01*
X5028810Y-7850048D01*
X5038333Y-7831000D01*
X5057381Y-7802428D01*
X5066905Y-7792905D01*
X5124048Y-7821476D02*
X5247857Y-7821476D01*
X5181190Y-7897667D01*
X5209762Y-7897667D01*
X5228810Y-7907190D01*
X5238333Y-7916714D01*
X5247857Y-7935762D01*
X5247857Y-7983381D01*
X5238333Y-8002428D01*
X5228810Y-8011952D01*
X5209762Y-8021476D01*
X5152619Y-8021476D01*
X5133571Y-8011952D01*
X5124048Y-8002428D01*
X5371667Y-7821476D02*
X5390714Y-7821476D01*
X5409762Y-7831000D01*
X5419286Y-7840524D01*
X5428810Y-7859571D01*
X5438333Y-7897667D01*
X5438333Y-7945286D01*
X5428810Y-7983381D01*
X5419286Y-8002428D01*
X5409762Y-8011952D01*
X5390714Y-8021476D01*
X5371667Y-8021476D01*
X5352619Y-8011952D01*
X5343095Y-8002428D01*
X5333571Y-7983381D01*
X5324048Y-7945286D01*
X5324048Y-7897667D01*
X5333571Y-7859571D01*
X5343095Y-7840524D01*
X5352619Y-7831000D01*
X5371667Y-7821476D01*
X5676428Y-8021476D02*
X5676428Y-7821476D01*
X5762143Y-8021476D02*
X5762143Y-7916714D01*
X5752619Y-7897667D01*
X5733571Y-7888143D01*
X5705000Y-7888143D01*
X5685952Y-7897667D01*
X5676428Y-7907190D01*
X5885952Y-8021476D02*
X5866905Y-8011952D01*
X5857381Y-8002428D01*
X5847857Y-7983381D01*
X5847857Y-7926238D01*
X5857381Y-7907190D01*
X5866905Y-7897667D01*
X5885952Y-7888143D01*
X5914524Y-7888143D01*
X5933571Y-7897667D01*
X5943095Y-7907190D01*
X5952619Y-7926238D01*
X5952619Y-7983381D01*
X5943095Y-8002428D01*
X5933571Y-8011952D01*
X5914524Y-8021476D01*
X5885952Y-8021476D01*
X6066905Y-8021476D02*
X6047857Y-8011952D01*
X6038333Y-7992905D01*
X6038333Y-7821476D01*
X6219286Y-8011952D02*
X6200238Y-8021476D01*
X6162143Y-8021476D01*
X6143095Y-8011952D01*
X6133571Y-7992905D01*
X6133571Y-7916714D01*
X6143095Y-7897667D01*
X6162143Y-7888143D01*
X6200238Y-7888143D01*
X6219286Y-7897667D01*
X6228809Y-7916714D01*
X6228809Y-7935762D01*
X6133571Y-7954809D01*
X6305000Y-8011952D02*
X6324048Y-8021476D01*
X6362143Y-8021476D01*
X6381190Y-8011952D01*
X6390714Y-7992905D01*
X6390714Y-7983381D01*
X6381190Y-7964333D01*
X6362143Y-7954809D01*
X6333571Y-7954809D01*
X6314524Y-7945286D01*
X6305000Y-7926238D01*
X6305000Y-7916714D01*
X6314524Y-7897667D01*
X6333571Y-7888143D01*
X6362143Y-7888143D01*
X6381190Y-7897667D01*
X6457381Y-8097667D02*
X6466905Y-8088143D01*
X6485952Y-8059571D01*
X6495476Y-8040524D01*
X6505000Y-8011952D01*
X6514524Y-7964333D01*
X6514524Y-7926238D01*
X6505000Y-7878619D01*
X6495476Y-7850048D01*
X6485952Y-7831000D01*
X6466905Y-7802428D01*
X6457381Y-7792905D01*
M02*
