M48
; DRILL file {KiCad 6.0.4} date Di 17 Mai 2022 11:40:28 CEST
; FORMAT={-:-/ absolute / metric / decimal}
; #@! TF.CreationDate,2022-05-17T11:40:28+02:00
; #@! TF.GenerationSoftware,Kicad,Pcbnew,6.0.4
; #@! TF.FileFunction,NonPlated,1,2,NPTH
FMAT,2
METRIC
; #@! TA.AperFunction,NonPlated,NPTH,ComponentDrill
T1C0.500
; #@! TA.AperFunction,NonPlated,NPTH,ComponentDrill
T2C3.000
%
G90
G05
T1
X22.2Y-29.48
X22.2Y-30.313
X22.2Y-31.147
X22.2Y-31.98
X22.2Y-53.24
X22.2Y-54.073
X22.2Y-54.907
X22.2Y-55.74
X34.96Y-29.48
X34.96Y-30.313
X34.96Y-31.147
X34.96Y-31.98
X34.96Y-53.24
X34.96Y-54.073
X34.96Y-54.907
X34.96Y-55.74
X41.66Y-29.48
X41.66Y-30.313
X41.66Y-31.147
X41.66Y-31.98
X41.66Y-53.24
X41.66Y-54.073
X41.66Y-54.907
X41.66Y-55.74
X54.4Y-29.48
X54.4Y-30.313
X54.4Y-31.147
X54.4Y-31.98
X54.4Y-53.24
X54.4Y-54.073
X54.4Y-54.907
X54.4Y-55.74
X61.1Y-29.48
X61.1Y-30.313
X61.1Y-31.147
X61.1Y-31.98
X61.1Y-53.24
X61.1Y-54.073
X61.1Y-54.907
X61.1Y-55.74
X73.86Y-29.48
X73.86Y-30.313
X73.86Y-31.147
X73.86Y-31.98
X73.86Y-53.24
X73.86Y-54.073
X73.86Y-54.907
X73.86Y-55.74
X80.56Y-29.48
X80.56Y-30.313
X80.56Y-31.147
X80.56Y-31.98
X80.56Y-53.24
X80.56Y-54.073
X80.56Y-54.907
X80.56Y-55.74
X93.3Y-29.48
X93.3Y-30.313
X93.3Y-31.147
X93.3Y-31.98
X93.3Y-53.24
X93.3Y-54.073
X93.3Y-54.907
X93.3Y-55.74
X100.0Y-29.48
X100.0Y-30.313
X100.0Y-31.147
X100.0Y-31.98
X100.0Y-53.24
X100.0Y-54.073
X100.0Y-54.907
X100.0Y-55.74
X112.76Y-29.48
X112.76Y-30.313
X112.76Y-31.147
X112.76Y-31.98
X112.76Y-53.24
X112.76Y-54.073
X112.76Y-54.907
X112.76Y-55.74
T2
X32.5Y-17.5
X32.5Y-67.72
X102.46Y-17.5
X102.46Y-67.72
T0
M30
