%FSLAX45Y45*%
G04 Gerber Fmt 4.5, Leading zero omitted, Abs format (unit mm)*
G04 Created by KiCad (PCBNEW 6.0.4) date 2022-05-17 11:40:29*
%MOMM*%
%LPD*%
G01*
G04 APERTURE LIST*
%TA.AperFunction,Profile*%
%ADD10C,0.100000*%
%TD*%
%ADD11C,0.200000*%
%ADD12C,0.050000*%
%ADD13C,0.300000*%
G04 APERTURE END LIST*
D10*
X9540000Y-6522000D02*
X7846000Y-6522000D01*
X2250000Y-6272000D02*
X3466000Y-6272000D01*
X3956000Y-3198000D02*
X4196000Y-3198000D01*
X11246000Y-6272000D02*
X11246000Y-5574000D01*
X5650000Y-5574000D02*
X5650000Y-6522000D01*
X3956000Y-4136000D02*
X3956000Y-3198000D01*
X7846000Y-5324000D02*
X7846000Y-4386000D01*
X9300000Y-4626000D02*
X8086000Y-4626000D01*
X7846000Y-2948000D02*
X7846000Y-2000000D01*
X5410000Y-4626000D02*
X4196000Y-4626000D01*
X5900000Y-3198000D02*
X6140000Y-3198000D01*
X9540000Y-4386000D02*
X9540000Y-5324000D01*
X9540000Y-2000000D02*
X9540000Y-2250000D01*
X5650000Y-6522000D02*
X3956000Y-6522000D01*
X2000000Y-2948000D02*
X2000000Y-2000000D01*
X5900000Y-6272000D02*
X5900000Y-5574000D01*
X3706000Y-4136000D02*
X2000000Y-4136000D01*
X7596000Y-2000000D02*
X7596000Y-2250000D01*
X11496000Y-4136000D02*
X11246000Y-4136000D01*
X11246000Y-2948000D02*
X11246000Y-2250000D01*
X9790000Y-4386000D02*
X11496000Y-4386000D01*
X2000000Y-6522000D02*
X2000000Y-5574000D01*
X5650000Y-3198000D02*
X5650000Y-4136000D01*
X2000000Y-4136000D02*
X2000000Y-3198000D01*
X3706000Y-2948000D02*
X3466000Y-2948000D01*
X2250000Y-5324000D02*
X2000000Y-5324000D01*
X7846000Y-2000000D02*
X9540000Y-2000000D01*
X6140000Y-4626000D02*
X6140000Y-5324000D01*
X5650000Y-4136000D02*
X3956000Y-4136000D01*
X11996000Y-1500000D02*
X1500000Y-1500000D01*
X9540000Y-2250000D02*
X9540000Y-2948000D01*
X6140000Y-6272000D02*
X7356000Y-6272000D01*
X8086000Y-3198000D02*
X8086000Y-3896000D01*
X11246000Y-4626000D02*
X10030000Y-4626000D01*
X10030000Y-6272000D02*
X11246000Y-6272000D01*
X7596000Y-2948000D02*
X7356000Y-2948000D01*
X10030000Y-2250000D02*
X10030000Y-2948000D01*
X10030000Y-5324000D02*
X9790000Y-5324000D01*
X3466000Y-5574000D02*
X3706000Y-5574000D01*
X2250000Y-5574000D02*
X2250000Y-6272000D01*
X11496000Y-6522000D02*
X9790000Y-6522000D01*
X6140000Y-3198000D02*
X6140000Y-3896000D01*
X11496000Y-2948000D02*
X11246000Y-2948000D01*
X7846000Y-3198000D02*
X8086000Y-3198000D01*
X7596000Y-4386000D02*
X7596000Y-5324000D01*
X7596000Y-2250000D02*
X7596000Y-2948000D01*
X11246000Y-2250000D02*
X10030000Y-2250000D01*
X6140000Y-2948000D02*
X5900000Y-2948000D01*
X2000000Y-5574000D02*
X2250000Y-5574000D01*
X3706000Y-5324000D02*
X3466000Y-5324000D01*
X7596000Y-4136000D02*
X5900000Y-4136000D01*
X5650000Y-2250000D02*
X5650000Y-2948000D01*
X11996000Y-7022000D02*
X11996000Y-1500000D01*
X9300000Y-5574000D02*
X9540000Y-5574000D01*
X3706000Y-3198000D02*
X3706000Y-4136000D01*
X8086000Y-5574000D02*
X8086000Y-6272000D01*
X7846000Y-4136000D02*
X7846000Y-3198000D01*
X11496000Y-2000000D02*
X11496000Y-2948000D01*
X2000000Y-4386000D02*
X2250000Y-4386000D01*
X9790000Y-2000000D02*
X11496000Y-2000000D01*
X4196000Y-5574000D02*
X4196000Y-6272000D01*
X7596000Y-3198000D02*
X7596000Y-4136000D01*
X11496000Y-5574000D02*
X11496000Y-6522000D01*
X9790000Y-4136000D02*
X9790000Y-3198000D01*
X11496000Y-4386000D02*
X11496000Y-5324000D01*
X3706000Y-6522000D02*
X2000000Y-6522000D01*
X9790000Y-6272000D02*
X9790000Y-5574000D01*
X8086000Y-2948000D02*
X7846000Y-2948000D01*
X9540000Y-5324000D02*
X9300000Y-5324000D01*
X1500000Y-1500000D02*
X1500000Y-7022000D01*
X9790000Y-5324000D02*
X9790000Y-4386000D01*
X2000000Y-3198000D02*
X2250000Y-3198000D01*
X2250000Y-2948000D02*
X2000000Y-2948000D01*
X5900000Y-6522000D02*
X5900000Y-6272000D01*
X8086000Y-5324000D02*
X7846000Y-5324000D01*
X7846000Y-4386000D02*
X9540000Y-4386000D01*
X3466000Y-3896000D02*
X3466000Y-3198000D01*
X5650000Y-5324000D02*
X5410000Y-5324000D01*
X5650000Y-2948000D02*
X5410000Y-2948000D01*
X7356000Y-5324000D02*
X7356000Y-4626000D01*
X3956000Y-6272000D02*
X3956000Y-5574000D01*
X2250000Y-2250000D02*
X2250000Y-2948000D01*
X7356000Y-3896000D02*
X7356000Y-3198000D01*
X5410000Y-5324000D02*
X5410000Y-4626000D01*
X5900000Y-5324000D02*
X5900000Y-4386000D01*
X4196000Y-2948000D02*
X3956000Y-2948000D01*
X2000000Y-5324000D02*
X2000000Y-4386000D01*
X8086000Y-4626000D02*
X8086000Y-5324000D01*
X3956000Y-2948000D02*
X3956000Y-2000000D01*
X4196000Y-4626000D02*
X4196000Y-5324000D01*
X2000000Y-2000000D02*
X3706000Y-2000000D01*
X3466000Y-4626000D02*
X2250000Y-4626000D01*
X5410000Y-3198000D02*
X5650000Y-3198000D01*
X10030000Y-3198000D02*
X10030000Y-3896000D01*
X9300000Y-5324000D02*
X9300000Y-4626000D01*
X9300000Y-2948000D02*
X9300000Y-2250000D01*
X5650000Y-4386000D02*
X5650000Y-5324000D01*
X4196000Y-2250000D02*
X4196000Y-2948000D01*
X7356000Y-2948000D02*
X7356000Y-2250000D01*
X4196000Y-5324000D02*
X3956000Y-5324000D01*
X5410000Y-2250000D02*
X4196000Y-2250000D01*
X9790000Y-2948000D02*
X9790000Y-2000000D01*
X2250000Y-3198000D02*
X2250000Y-3896000D01*
X7846000Y-5574000D02*
X8086000Y-5574000D01*
X6140000Y-5324000D02*
X5900000Y-5324000D01*
X3466000Y-5324000D02*
X3466000Y-4626000D01*
X2250000Y-4626000D02*
X2250000Y-5324000D01*
X4196000Y-6272000D02*
X5410000Y-6272000D01*
X2250000Y-4386000D02*
X3706000Y-4386000D01*
X5410000Y-2948000D02*
X5410000Y-2250000D01*
X3956000Y-4386000D02*
X5650000Y-4386000D01*
X4196000Y-3896000D02*
X5410000Y-3896000D01*
X1500000Y-7022000D02*
X11996000Y-7022000D01*
X8086000Y-6272000D02*
X9300000Y-6272000D01*
X3956000Y-5574000D02*
X4196000Y-5574000D01*
X10030000Y-4626000D02*
X10030000Y-5324000D01*
X10030000Y-2948000D02*
X9790000Y-2948000D01*
X3706000Y-2000000D02*
X3706000Y-2948000D01*
X9300000Y-3198000D02*
X9540000Y-3198000D01*
X7356000Y-2250000D02*
X6140000Y-2250000D01*
X9790000Y-5574000D02*
X10030000Y-5574000D01*
X8086000Y-3896000D02*
X9300000Y-3896000D01*
X10030000Y-5574000D02*
X10030000Y-6272000D01*
X3466000Y-2250000D02*
X2250000Y-2250000D01*
X3706000Y-5574000D02*
X3706000Y-6522000D01*
X6140000Y-3896000D02*
X7356000Y-3896000D01*
X11246000Y-3198000D02*
X11496000Y-3198000D01*
X3706000Y-4386000D02*
X3706000Y-5324000D01*
X5900000Y-2000000D02*
X7596000Y-2000000D01*
X7356000Y-4626000D02*
X6140000Y-4626000D01*
X9300000Y-6272000D02*
X9300000Y-5574000D01*
X11246000Y-5324000D02*
X11246000Y-4626000D01*
X7356000Y-6272000D02*
X7356000Y-5574000D01*
X6140000Y-5574000D02*
X6140000Y-6272000D01*
X7356000Y-3198000D02*
X7596000Y-3198000D01*
X4196000Y-3198000D02*
X4196000Y-3896000D01*
X10030000Y-3896000D02*
X11246000Y-3896000D01*
X9790000Y-6522000D02*
X9790000Y-6272000D01*
X5410000Y-5574000D02*
X5650000Y-5574000D01*
X5650000Y-2000000D02*
X5650000Y-2250000D01*
X9790000Y-3198000D02*
X10030000Y-3198000D01*
X5900000Y-4136000D02*
X5900000Y-3198000D01*
X11496000Y-3198000D02*
X11496000Y-4136000D01*
X3956000Y-5324000D02*
X3956000Y-4386000D01*
X7846000Y-6272000D02*
X7846000Y-5574000D01*
X5900000Y-4386000D02*
X7596000Y-4386000D01*
X11246000Y-4136000D02*
X9790000Y-4136000D01*
X3956000Y-2000000D02*
X5650000Y-2000000D01*
X11246000Y-3896000D02*
X11246000Y-3198000D01*
X7846000Y-6522000D02*
X7846000Y-6272000D01*
X5410000Y-6272000D02*
X5410000Y-5574000D01*
X6140000Y-2250000D02*
X6140000Y-2948000D01*
X9540000Y-2948000D02*
X9300000Y-2948000D01*
X7596000Y-5574000D02*
X7596000Y-6522000D01*
X9540000Y-4136000D02*
X7846000Y-4136000D01*
X9300000Y-3896000D02*
X9300000Y-3198000D01*
X8086000Y-2250000D02*
X8086000Y-2948000D01*
X3466000Y-6272000D02*
X3466000Y-5574000D01*
X7356000Y-5574000D02*
X7596000Y-5574000D01*
X3956000Y-6522000D02*
X3956000Y-6272000D01*
X3466000Y-2948000D02*
X3466000Y-2250000D01*
X2250000Y-3896000D02*
X3466000Y-3896000D01*
X7596000Y-5324000D02*
X7356000Y-5324000D01*
X9540000Y-3198000D02*
X9540000Y-4136000D01*
X11496000Y-5324000D02*
X11246000Y-5324000D01*
X9540000Y-5574000D02*
X9540000Y-6522000D01*
X5900000Y-5574000D02*
X6140000Y-5574000D01*
X11246000Y-5574000D02*
X11496000Y-5574000D01*
X7596000Y-6522000D02*
X5900000Y-6522000D01*
X3466000Y-3198000D02*
X3706000Y-3198000D01*
X9300000Y-2250000D02*
X8086000Y-2250000D01*
X5410000Y-3896000D02*
X5410000Y-3198000D01*
X5900000Y-2948000D02*
X5900000Y-2000000D01*
D11*
D12*
X2195000Y-2923000D02*
X2245000Y-2973000D01*
X2245000Y-2923000D02*
X2195000Y-2973000D01*
X2195000Y-3006333D02*
X2245000Y-3056333D01*
X2245000Y-3006333D02*
X2195000Y-3056333D01*
X2195000Y-3089667D02*
X2245000Y-3139667D01*
X2245000Y-3089667D02*
X2195000Y-3139667D01*
X2195000Y-3173000D02*
X2245000Y-3223000D01*
X2245000Y-3173000D02*
X2195000Y-3223000D01*
X2195000Y-5299000D02*
X2245000Y-5349000D01*
X2245000Y-5299000D02*
X2195000Y-5349000D01*
X2195000Y-5382333D02*
X2245000Y-5432333D01*
X2245000Y-5382333D02*
X2195000Y-5432333D01*
X2195000Y-5465667D02*
X2245000Y-5515667D01*
X2245000Y-5465667D02*
X2195000Y-5515667D01*
X2195000Y-5549000D02*
X2245000Y-5599000D01*
X2245000Y-5549000D02*
X2195000Y-5599000D01*
X3471000Y-2923000D02*
X3521000Y-2973000D01*
X3521000Y-2923000D02*
X3471000Y-2973000D01*
X3471000Y-3006333D02*
X3521000Y-3056333D01*
X3521000Y-3006333D02*
X3471000Y-3056333D01*
X3471000Y-3089667D02*
X3521000Y-3139667D01*
X3521000Y-3089667D02*
X3471000Y-3139667D01*
X3471000Y-3173000D02*
X3521000Y-3223000D01*
X3521000Y-3173000D02*
X3471000Y-3223000D01*
X3471000Y-5299000D02*
X3521000Y-5349000D01*
X3521000Y-5299000D02*
X3471000Y-5349000D01*
X3471000Y-5382333D02*
X3521000Y-5432333D01*
X3521000Y-5382333D02*
X3471000Y-5432333D01*
X3471000Y-5465667D02*
X3521000Y-5515667D01*
X3521000Y-5465667D02*
X3471000Y-5515667D01*
X3471000Y-5549000D02*
X3521000Y-5599000D01*
X3521000Y-5549000D02*
X3471000Y-5599000D01*
X4141000Y-2923000D02*
X4191000Y-2973000D01*
X4191000Y-2923000D02*
X4141000Y-2973000D01*
X4141000Y-3006333D02*
X4191000Y-3056333D01*
X4191000Y-3006333D02*
X4141000Y-3056333D01*
X4141000Y-3089667D02*
X4191000Y-3139667D01*
X4191000Y-3089667D02*
X4141000Y-3139667D01*
X4141000Y-3173000D02*
X4191000Y-3223000D01*
X4191000Y-3173000D02*
X4141000Y-3223000D01*
X4141000Y-5299000D02*
X4191000Y-5349000D01*
X4191000Y-5299000D02*
X4141000Y-5349000D01*
X4141000Y-5382333D02*
X4191000Y-5432333D01*
X4191000Y-5382333D02*
X4141000Y-5432333D01*
X4141000Y-5465667D02*
X4191000Y-5515667D01*
X4191000Y-5465667D02*
X4141000Y-5515667D01*
X4141000Y-5549000D02*
X4191000Y-5599000D01*
X4191000Y-5549000D02*
X4141000Y-5599000D01*
X5415000Y-2923000D02*
X5465000Y-2973000D01*
X5465000Y-2923000D02*
X5415000Y-2973000D01*
X5415000Y-3006333D02*
X5465000Y-3056333D01*
X5465000Y-3006333D02*
X5415000Y-3056333D01*
X5415000Y-3089667D02*
X5465000Y-3139667D01*
X5465000Y-3089667D02*
X5415000Y-3139667D01*
X5415000Y-3173000D02*
X5465000Y-3223000D01*
X5465000Y-3173000D02*
X5415000Y-3223000D01*
X5415000Y-5299000D02*
X5465000Y-5349000D01*
X5465000Y-5299000D02*
X5415000Y-5349000D01*
X5415000Y-5382333D02*
X5465000Y-5432333D01*
X5465000Y-5382333D02*
X5415000Y-5432333D01*
X5415000Y-5465667D02*
X5465000Y-5515667D01*
X5465000Y-5465667D02*
X5415000Y-5515667D01*
X5415000Y-5549000D02*
X5465000Y-5599000D01*
X5465000Y-5549000D02*
X5415000Y-5599000D01*
X6085000Y-2923000D02*
X6135000Y-2973000D01*
X6135000Y-2923000D02*
X6085000Y-2973000D01*
X6085000Y-3006333D02*
X6135000Y-3056333D01*
X6135000Y-3006333D02*
X6085000Y-3056333D01*
X6085000Y-3089667D02*
X6135000Y-3139667D01*
X6135000Y-3089667D02*
X6085000Y-3139667D01*
X6085000Y-3173000D02*
X6135000Y-3223000D01*
X6135000Y-3173000D02*
X6085000Y-3223000D01*
X6085000Y-5299000D02*
X6135000Y-5349000D01*
X6135000Y-5299000D02*
X6085000Y-5349000D01*
X6085000Y-5382333D02*
X6135000Y-5432333D01*
X6135000Y-5382333D02*
X6085000Y-5432333D01*
X6085000Y-5465667D02*
X6135000Y-5515667D01*
X6135000Y-5465667D02*
X6085000Y-5515667D01*
X6085000Y-5549000D02*
X6135000Y-5599000D01*
X6135000Y-5549000D02*
X6085000Y-5599000D01*
X7361000Y-2923000D02*
X7411000Y-2973000D01*
X7411000Y-2923000D02*
X7361000Y-2973000D01*
X7361000Y-3006333D02*
X7411000Y-3056333D01*
X7411000Y-3006333D02*
X7361000Y-3056333D01*
X7361000Y-3089667D02*
X7411000Y-3139667D01*
X7411000Y-3089667D02*
X7361000Y-3139667D01*
X7361000Y-3173000D02*
X7411000Y-3223000D01*
X7411000Y-3173000D02*
X7361000Y-3223000D01*
X7361000Y-5299000D02*
X7411000Y-5349000D01*
X7411000Y-5299000D02*
X7361000Y-5349000D01*
X7361000Y-5382333D02*
X7411000Y-5432333D01*
X7411000Y-5382333D02*
X7361000Y-5432333D01*
X7361000Y-5465667D02*
X7411000Y-5515667D01*
X7411000Y-5465667D02*
X7361000Y-5515667D01*
X7361000Y-5549000D02*
X7411000Y-5599000D01*
X7411000Y-5549000D02*
X7361000Y-5599000D01*
X8031000Y-2923000D02*
X8081000Y-2973000D01*
X8081000Y-2923000D02*
X8031000Y-2973000D01*
X8031000Y-3006333D02*
X8081000Y-3056333D01*
X8081000Y-3006333D02*
X8031000Y-3056333D01*
X8031000Y-3089667D02*
X8081000Y-3139667D01*
X8081000Y-3089667D02*
X8031000Y-3139667D01*
X8031000Y-3173000D02*
X8081000Y-3223000D01*
X8081000Y-3173000D02*
X8031000Y-3223000D01*
X8031000Y-5299000D02*
X8081000Y-5349000D01*
X8081000Y-5299000D02*
X8031000Y-5349000D01*
X8031000Y-5382333D02*
X8081000Y-5432333D01*
X8081000Y-5382333D02*
X8031000Y-5432333D01*
X8031000Y-5465667D02*
X8081000Y-5515667D01*
X8081000Y-5465667D02*
X8031000Y-5515667D01*
X8031000Y-5549000D02*
X8081000Y-5599000D01*
X8081000Y-5549000D02*
X8031000Y-5599000D01*
X9305000Y-2923000D02*
X9355000Y-2973000D01*
X9355000Y-2923000D02*
X9305000Y-2973000D01*
X9305000Y-3006333D02*
X9355000Y-3056333D01*
X9355000Y-3006333D02*
X9305000Y-3056333D01*
X9305000Y-3089667D02*
X9355000Y-3139667D01*
X9355000Y-3089667D02*
X9305000Y-3139667D01*
X9305000Y-3173000D02*
X9355000Y-3223000D01*
X9355000Y-3173000D02*
X9305000Y-3223000D01*
X9305000Y-5299000D02*
X9355000Y-5349000D01*
X9355000Y-5299000D02*
X9305000Y-5349000D01*
X9305000Y-5382333D02*
X9355000Y-5432333D01*
X9355000Y-5382333D02*
X9305000Y-5432333D01*
X9305000Y-5465667D02*
X9355000Y-5515667D01*
X9355000Y-5465667D02*
X9305000Y-5515667D01*
X9305000Y-5549000D02*
X9355000Y-5599000D01*
X9355000Y-5549000D02*
X9305000Y-5599000D01*
X9975000Y-2923000D02*
X10025000Y-2973000D01*
X10025000Y-2923000D02*
X9975000Y-2973000D01*
X9975000Y-3006333D02*
X10025000Y-3056333D01*
X10025000Y-3006333D02*
X9975000Y-3056333D01*
X9975000Y-3089667D02*
X10025000Y-3139667D01*
X10025000Y-3089667D02*
X9975000Y-3139667D01*
X9975000Y-3173000D02*
X10025000Y-3223000D01*
X10025000Y-3173000D02*
X9975000Y-3223000D01*
X9975000Y-5299000D02*
X10025000Y-5349000D01*
X10025000Y-5299000D02*
X9975000Y-5349000D01*
X9975000Y-5382333D02*
X10025000Y-5432333D01*
X10025000Y-5382333D02*
X9975000Y-5432333D01*
X9975000Y-5465667D02*
X10025000Y-5515667D01*
X10025000Y-5465667D02*
X9975000Y-5515667D01*
X9975000Y-5549000D02*
X10025000Y-5599000D01*
X10025000Y-5549000D02*
X9975000Y-5599000D01*
X11251000Y-2923000D02*
X11301000Y-2973000D01*
X11301000Y-2923000D02*
X11251000Y-2973000D01*
X11251000Y-3006333D02*
X11301000Y-3056333D01*
X11301000Y-3006333D02*
X11251000Y-3056333D01*
X11251000Y-3089667D02*
X11301000Y-3139667D01*
X11301000Y-3089667D02*
X11251000Y-3139667D01*
X11251000Y-3173000D02*
X11301000Y-3223000D01*
X11301000Y-3173000D02*
X11251000Y-3223000D01*
X11251000Y-5299000D02*
X11301000Y-5349000D01*
X11301000Y-5299000D02*
X11251000Y-5349000D01*
X11251000Y-5382333D02*
X11301000Y-5432333D01*
X11301000Y-5382333D02*
X11251000Y-5432333D01*
X11251000Y-5465667D02*
X11301000Y-5515667D01*
X11301000Y-5465667D02*
X11251000Y-5515667D01*
X11251000Y-5549000D02*
X11301000Y-5599000D01*
X11301000Y-5549000D02*
X11251000Y-5599000D01*
D13*
X3400000Y-1750000D02*
G75*
G03*
X3400000Y-1750000I-150000J0D01*
G01*
X3400000Y-6772000D02*
G75*
G03*
X3400000Y-6772000I-150000J0D01*
G01*
X10396000Y-1750000D02*
G75*
G03*
X10396000Y-1750000I-150000J0D01*
G01*
X10396000Y-6772000D02*
G75*
G03*
X10396000Y-6772000I-150000J0D01*
G01*
D11*
X1752619Y-7337476D02*
X1752619Y-7137476D01*
X1800238Y-7137476D01*
X1828809Y-7147000D01*
X1847857Y-7166048D01*
X1857381Y-7185095D01*
X1866905Y-7223190D01*
X1866905Y-7251762D01*
X1857381Y-7289857D01*
X1847857Y-7308905D01*
X1828809Y-7327952D01*
X1800238Y-7337476D01*
X1752619Y-7337476D01*
X1952619Y-7337476D02*
X1952619Y-7204143D01*
X1952619Y-7242238D02*
X1962143Y-7223190D01*
X1971667Y-7213667D01*
X1990714Y-7204143D01*
X2009762Y-7204143D01*
X2076428Y-7337476D02*
X2076428Y-7204143D01*
X2076428Y-7137476D02*
X2066905Y-7147000D01*
X2076428Y-7156524D01*
X2085952Y-7147000D01*
X2076428Y-7137476D01*
X2076428Y-7156524D01*
X2200238Y-7337476D02*
X2181190Y-7327952D01*
X2171667Y-7308905D01*
X2171667Y-7137476D01*
X2305000Y-7337476D02*
X2285952Y-7327952D01*
X2276429Y-7308905D01*
X2276429Y-7137476D01*
X2533571Y-7337476D02*
X2533571Y-7137476D01*
X2600238Y-7280333D01*
X2666905Y-7137476D01*
X2666905Y-7337476D01*
X2847857Y-7337476D02*
X2847857Y-7232714D01*
X2838333Y-7213667D01*
X2819286Y-7204143D01*
X2781190Y-7204143D01*
X2762143Y-7213667D01*
X2847857Y-7327952D02*
X2828809Y-7337476D01*
X2781190Y-7337476D01*
X2762143Y-7327952D01*
X2752619Y-7308905D01*
X2752619Y-7289857D01*
X2762143Y-7270809D01*
X2781190Y-7261286D01*
X2828809Y-7261286D01*
X2847857Y-7251762D01*
X2943095Y-7204143D02*
X2943095Y-7404143D01*
X2943095Y-7213667D02*
X2962143Y-7204143D01*
X3000238Y-7204143D01*
X3019286Y-7213667D01*
X3028809Y-7223190D01*
X3038333Y-7242238D01*
X3038333Y-7299381D01*
X3028809Y-7318428D01*
X3019286Y-7327952D01*
X3000238Y-7337476D01*
X2962143Y-7337476D01*
X2943095Y-7327952D01*
X3124048Y-7318428D02*
X3133571Y-7327952D01*
X3124048Y-7337476D01*
X3114524Y-7327952D01*
X3124048Y-7318428D01*
X3124048Y-7337476D01*
X3124048Y-7213667D02*
X3133571Y-7223190D01*
X3124048Y-7232714D01*
X3114524Y-7223190D01*
X3124048Y-7213667D01*
X3124048Y-7232714D01*
D12*
X1445000Y-7642000D02*
X1495000Y-7692000D01*
X1495000Y-7642000D02*
X1445000Y-7692000D01*
D11*
X1790714Y-7557476D02*
X1809762Y-7557476D01*
X1828809Y-7567000D01*
X1838333Y-7576524D01*
X1847857Y-7595571D01*
X1857381Y-7633667D01*
X1857381Y-7681286D01*
X1847857Y-7719381D01*
X1838333Y-7738428D01*
X1828809Y-7747952D01*
X1809762Y-7757476D01*
X1790714Y-7757476D01*
X1771667Y-7747952D01*
X1762143Y-7738428D01*
X1752619Y-7719381D01*
X1743095Y-7681286D01*
X1743095Y-7633667D01*
X1752619Y-7595571D01*
X1762143Y-7576524D01*
X1771667Y-7567000D01*
X1790714Y-7557476D01*
X1943095Y-7738428D02*
X1952619Y-7747952D01*
X1943095Y-7757476D01*
X1933571Y-7747952D01*
X1943095Y-7738428D01*
X1943095Y-7757476D01*
X2133571Y-7557476D02*
X2038333Y-7557476D01*
X2028809Y-7652714D01*
X2038333Y-7643190D01*
X2057381Y-7633667D01*
X2105000Y-7633667D01*
X2124048Y-7643190D01*
X2133571Y-7652714D01*
X2143095Y-7671762D01*
X2143095Y-7719381D01*
X2133571Y-7738428D01*
X2124048Y-7747952D01*
X2105000Y-7757476D01*
X2057381Y-7757476D01*
X2038333Y-7747952D01*
X2028809Y-7738428D01*
X2266905Y-7557476D02*
X2285952Y-7557476D01*
X2305000Y-7567000D01*
X2314524Y-7576524D01*
X2324048Y-7595571D01*
X2333571Y-7633667D01*
X2333571Y-7681286D01*
X2324048Y-7719381D01*
X2314524Y-7738428D01*
X2305000Y-7747952D01*
X2285952Y-7757476D01*
X2266905Y-7757476D01*
X2247857Y-7747952D01*
X2238333Y-7738428D01*
X2228810Y-7719381D01*
X2219286Y-7681286D01*
X2219286Y-7633667D01*
X2228810Y-7595571D01*
X2238333Y-7576524D01*
X2247857Y-7567000D01*
X2266905Y-7557476D01*
X2457381Y-7557476D02*
X2476429Y-7557476D01*
X2495476Y-7567000D01*
X2505000Y-7576524D01*
X2514524Y-7595571D01*
X2524048Y-7633667D01*
X2524048Y-7681286D01*
X2514524Y-7719381D01*
X2505000Y-7738428D01*
X2495476Y-7747952D01*
X2476429Y-7757476D01*
X2457381Y-7757476D01*
X2438333Y-7747952D01*
X2428810Y-7738428D01*
X2419286Y-7719381D01*
X2409762Y-7681286D01*
X2409762Y-7633667D01*
X2419286Y-7595571D01*
X2428810Y-7576524D01*
X2438333Y-7567000D01*
X2457381Y-7557476D01*
X2609762Y-7757476D02*
X2609762Y-7624143D01*
X2609762Y-7643190D02*
X2619286Y-7633667D01*
X2638333Y-7624143D01*
X2666905Y-7624143D01*
X2685952Y-7633667D01*
X2695476Y-7652714D01*
X2695476Y-7757476D01*
X2695476Y-7652714D02*
X2705000Y-7633667D01*
X2724048Y-7624143D01*
X2752619Y-7624143D01*
X2771667Y-7633667D01*
X2781190Y-7652714D01*
X2781190Y-7757476D01*
X2876428Y-7757476D02*
X2876428Y-7624143D01*
X2876428Y-7643190D02*
X2885952Y-7633667D01*
X2905000Y-7624143D01*
X2933571Y-7624143D01*
X2952619Y-7633667D01*
X2962143Y-7652714D01*
X2962143Y-7757476D01*
X2962143Y-7652714D02*
X2971667Y-7633667D01*
X2990714Y-7624143D01*
X3019286Y-7624143D01*
X3038333Y-7633667D01*
X3047857Y-7652714D01*
X3047857Y-7757476D01*
X3438333Y-7547952D02*
X3266905Y-7805095D01*
X3695476Y-7557476D02*
X3714524Y-7557476D01*
X3733571Y-7567000D01*
X3743095Y-7576524D01*
X3752619Y-7595571D01*
X3762143Y-7633667D01*
X3762143Y-7681286D01*
X3752619Y-7719381D01*
X3743095Y-7738428D01*
X3733571Y-7747952D01*
X3714524Y-7757476D01*
X3695476Y-7757476D01*
X3676428Y-7747952D01*
X3666905Y-7738428D01*
X3657381Y-7719381D01*
X3647857Y-7681286D01*
X3647857Y-7633667D01*
X3657381Y-7595571D01*
X3666905Y-7576524D01*
X3676428Y-7567000D01*
X3695476Y-7557476D01*
X3847857Y-7738428D02*
X3857381Y-7747952D01*
X3847857Y-7757476D01*
X3838333Y-7747952D01*
X3847857Y-7738428D01*
X3847857Y-7757476D01*
X3981190Y-7557476D02*
X4000238Y-7557476D01*
X4019286Y-7567000D01*
X4028809Y-7576524D01*
X4038333Y-7595571D01*
X4047857Y-7633667D01*
X4047857Y-7681286D01*
X4038333Y-7719381D01*
X4028809Y-7738428D01*
X4019286Y-7747952D01*
X4000238Y-7757476D01*
X3981190Y-7757476D01*
X3962143Y-7747952D01*
X3952619Y-7738428D01*
X3943095Y-7719381D01*
X3933571Y-7681286D01*
X3933571Y-7633667D01*
X3943095Y-7595571D01*
X3952619Y-7576524D01*
X3962143Y-7567000D01*
X3981190Y-7557476D01*
X4238333Y-7757476D02*
X4124048Y-7757476D01*
X4181190Y-7757476D02*
X4181190Y-7557476D01*
X4162143Y-7586048D01*
X4143095Y-7605095D01*
X4124048Y-7614619D01*
X4333571Y-7757476D02*
X4371667Y-7757476D01*
X4390714Y-7747952D01*
X4400238Y-7738428D01*
X4419286Y-7709857D01*
X4428810Y-7671762D01*
X4428810Y-7595571D01*
X4419286Y-7576524D01*
X4409762Y-7567000D01*
X4390714Y-7557476D01*
X4352619Y-7557476D01*
X4333571Y-7567000D01*
X4324048Y-7576524D01*
X4314524Y-7595571D01*
X4314524Y-7643190D01*
X4324048Y-7662238D01*
X4333571Y-7671762D01*
X4352619Y-7681286D01*
X4390714Y-7681286D01*
X4409762Y-7671762D01*
X4419286Y-7662238D01*
X4428810Y-7643190D01*
X4495476Y-7557476D02*
X4628810Y-7557476D01*
X4543095Y-7757476D01*
X4695476Y-7557476D02*
X4695476Y-7595571D01*
X4771667Y-7557476D02*
X4771667Y-7595571D01*
X5066905Y-7833667D02*
X5057381Y-7824143D01*
X5038333Y-7795571D01*
X5028810Y-7776524D01*
X5019286Y-7747952D01*
X5009762Y-7700333D01*
X5009762Y-7662238D01*
X5019286Y-7614619D01*
X5028810Y-7586048D01*
X5038333Y-7567000D01*
X5057381Y-7538428D01*
X5066905Y-7528905D01*
X5171667Y-7643190D02*
X5152619Y-7633667D01*
X5143095Y-7624143D01*
X5133571Y-7605095D01*
X5133571Y-7595571D01*
X5143095Y-7576524D01*
X5152619Y-7567000D01*
X5171667Y-7557476D01*
X5209762Y-7557476D01*
X5228810Y-7567000D01*
X5238333Y-7576524D01*
X5247857Y-7595571D01*
X5247857Y-7605095D01*
X5238333Y-7624143D01*
X5228810Y-7633667D01*
X5209762Y-7643190D01*
X5171667Y-7643190D01*
X5152619Y-7652714D01*
X5143095Y-7662238D01*
X5133571Y-7681286D01*
X5133571Y-7719381D01*
X5143095Y-7738428D01*
X5152619Y-7747952D01*
X5171667Y-7757476D01*
X5209762Y-7757476D01*
X5228810Y-7747952D01*
X5238333Y-7738428D01*
X5247857Y-7719381D01*
X5247857Y-7681286D01*
X5238333Y-7662238D01*
X5228810Y-7652714D01*
X5209762Y-7643190D01*
X5371667Y-7557476D02*
X5390714Y-7557476D01*
X5409762Y-7567000D01*
X5419286Y-7576524D01*
X5428810Y-7595571D01*
X5438333Y-7633667D01*
X5438333Y-7681286D01*
X5428810Y-7719381D01*
X5419286Y-7738428D01*
X5409762Y-7747952D01*
X5390714Y-7757476D01*
X5371667Y-7757476D01*
X5352619Y-7747952D01*
X5343095Y-7738428D01*
X5333571Y-7719381D01*
X5324048Y-7681286D01*
X5324048Y-7633667D01*
X5333571Y-7595571D01*
X5343095Y-7576524D01*
X5352619Y-7567000D01*
X5371667Y-7557476D01*
X5676428Y-7757476D02*
X5676428Y-7557476D01*
X5762143Y-7757476D02*
X5762143Y-7652714D01*
X5752619Y-7633667D01*
X5733571Y-7624143D01*
X5705000Y-7624143D01*
X5685952Y-7633667D01*
X5676428Y-7643190D01*
X5885952Y-7757476D02*
X5866905Y-7747952D01*
X5857381Y-7738428D01*
X5847857Y-7719381D01*
X5847857Y-7662238D01*
X5857381Y-7643190D01*
X5866905Y-7633667D01*
X5885952Y-7624143D01*
X5914524Y-7624143D01*
X5933571Y-7633667D01*
X5943095Y-7643190D01*
X5952619Y-7662238D01*
X5952619Y-7719381D01*
X5943095Y-7738428D01*
X5933571Y-7747952D01*
X5914524Y-7757476D01*
X5885952Y-7757476D01*
X6066905Y-7757476D02*
X6047857Y-7747952D01*
X6038333Y-7728905D01*
X6038333Y-7557476D01*
X6219286Y-7747952D02*
X6200238Y-7757476D01*
X6162143Y-7757476D01*
X6143095Y-7747952D01*
X6133571Y-7728905D01*
X6133571Y-7652714D01*
X6143095Y-7633667D01*
X6162143Y-7624143D01*
X6200238Y-7624143D01*
X6219286Y-7633667D01*
X6228809Y-7652714D01*
X6228809Y-7671762D01*
X6133571Y-7690809D01*
X6305000Y-7747952D02*
X6324048Y-7757476D01*
X6362143Y-7757476D01*
X6381190Y-7747952D01*
X6390714Y-7728905D01*
X6390714Y-7719381D01*
X6381190Y-7700333D01*
X6362143Y-7690809D01*
X6333571Y-7690809D01*
X6314524Y-7681286D01*
X6305000Y-7662238D01*
X6305000Y-7652714D01*
X6314524Y-7633667D01*
X6333571Y-7624143D01*
X6362143Y-7624143D01*
X6381190Y-7633667D01*
X6457381Y-7833667D02*
X6466905Y-7824143D01*
X6485952Y-7795571D01*
X6495476Y-7776524D01*
X6505000Y-7747952D01*
X6514524Y-7700333D01*
X6514524Y-7662238D01*
X6505000Y-7614619D01*
X6495476Y-7586048D01*
X6485952Y-7567000D01*
X6466905Y-7538428D01*
X6457381Y-7528905D01*
X6819286Y-7833667D02*
X6809762Y-7824143D01*
X6790714Y-7795571D01*
X6781190Y-7776524D01*
X6771667Y-7747952D01*
X6762143Y-7700333D01*
X6762143Y-7662238D01*
X6771667Y-7614619D01*
X6781190Y-7586048D01*
X6790714Y-7567000D01*
X6809762Y-7538428D01*
X6819286Y-7528905D01*
X6895476Y-7624143D02*
X6895476Y-7757476D01*
X6895476Y-7643190D02*
X6905000Y-7633667D01*
X6924048Y-7624143D01*
X6952619Y-7624143D01*
X6971667Y-7633667D01*
X6981190Y-7652714D01*
X6981190Y-7757476D01*
X7105000Y-7757476D02*
X7085952Y-7747952D01*
X7076428Y-7738428D01*
X7066905Y-7719381D01*
X7066905Y-7662238D01*
X7076428Y-7643190D01*
X7085952Y-7633667D01*
X7105000Y-7624143D01*
X7133571Y-7624143D01*
X7152619Y-7633667D01*
X7162143Y-7643190D01*
X7171667Y-7662238D01*
X7171667Y-7719381D01*
X7162143Y-7738428D01*
X7152619Y-7747952D01*
X7133571Y-7757476D01*
X7105000Y-7757476D01*
X7228809Y-7624143D02*
X7305000Y-7624143D01*
X7257381Y-7557476D02*
X7257381Y-7728905D01*
X7266905Y-7747952D01*
X7285952Y-7757476D01*
X7305000Y-7757476D01*
X7524048Y-7624143D02*
X7524048Y-7824143D01*
X7524048Y-7633667D02*
X7543095Y-7624143D01*
X7581190Y-7624143D01*
X7600238Y-7633667D01*
X7609762Y-7643190D01*
X7619286Y-7662238D01*
X7619286Y-7719381D01*
X7609762Y-7738428D01*
X7600238Y-7747952D01*
X7581190Y-7757476D01*
X7543095Y-7757476D01*
X7524048Y-7747952D01*
X7733571Y-7757476D02*
X7714524Y-7747952D01*
X7705000Y-7728905D01*
X7705000Y-7557476D01*
X7895476Y-7757476D02*
X7895476Y-7652714D01*
X7885952Y-7633667D01*
X7866905Y-7624143D01*
X7828809Y-7624143D01*
X7809762Y-7633667D01*
X7895476Y-7747952D02*
X7876428Y-7757476D01*
X7828809Y-7757476D01*
X7809762Y-7747952D01*
X7800238Y-7728905D01*
X7800238Y-7709857D01*
X7809762Y-7690809D01*
X7828809Y-7681286D01*
X7876428Y-7681286D01*
X7895476Y-7671762D01*
X7962143Y-7624143D02*
X8038333Y-7624143D01*
X7990714Y-7557476D02*
X7990714Y-7728905D01*
X8000238Y-7747952D01*
X8019286Y-7757476D01*
X8038333Y-7757476D01*
X8181190Y-7747952D02*
X8162143Y-7757476D01*
X8124048Y-7757476D01*
X8105000Y-7747952D01*
X8095476Y-7728905D01*
X8095476Y-7652714D01*
X8105000Y-7633667D01*
X8124048Y-7624143D01*
X8162143Y-7624143D01*
X8181190Y-7633667D01*
X8190714Y-7652714D01*
X8190714Y-7671762D01*
X8095476Y-7690809D01*
X8362143Y-7757476D02*
X8362143Y-7557476D01*
X8362143Y-7747952D02*
X8343095Y-7757476D01*
X8305000Y-7757476D01*
X8285952Y-7747952D01*
X8276428Y-7738428D01*
X8266905Y-7719381D01*
X8266905Y-7662238D01*
X8276428Y-7643190D01*
X8285952Y-7633667D01*
X8305000Y-7624143D01*
X8343095Y-7624143D01*
X8362143Y-7633667D01*
X8438333Y-7833667D02*
X8447857Y-7824143D01*
X8466905Y-7795571D01*
X8476429Y-7776524D01*
X8485952Y-7747952D01*
X8495476Y-7700333D01*
X8495476Y-7662238D01*
X8485952Y-7614619D01*
X8476429Y-7586048D01*
X8466905Y-7567000D01*
X8447857Y-7538428D01*
X8438333Y-7528905D01*
X1495000Y-7931000D02*
G75*
G03*
X1495000Y-7931000I-100000J0D01*
G01*
X1733571Y-7821476D02*
X1857381Y-7821476D01*
X1790714Y-7897667D01*
X1819286Y-7897667D01*
X1838333Y-7907190D01*
X1847857Y-7916714D01*
X1857381Y-7935762D01*
X1857381Y-7983381D01*
X1847857Y-8002428D01*
X1838333Y-8011952D01*
X1819286Y-8021476D01*
X1762143Y-8021476D01*
X1743095Y-8011952D01*
X1733571Y-8002428D01*
X1943095Y-8002428D02*
X1952619Y-8011952D01*
X1943095Y-8021476D01*
X1933571Y-8011952D01*
X1943095Y-8002428D01*
X1943095Y-8021476D01*
X2076428Y-7821476D02*
X2095476Y-7821476D01*
X2114524Y-7831000D01*
X2124048Y-7840524D01*
X2133571Y-7859571D01*
X2143095Y-7897667D01*
X2143095Y-7945286D01*
X2133571Y-7983381D01*
X2124048Y-8002428D01*
X2114524Y-8011952D01*
X2095476Y-8021476D01*
X2076428Y-8021476D01*
X2057381Y-8011952D01*
X2047857Y-8002428D01*
X2038333Y-7983381D01*
X2028809Y-7945286D01*
X2028809Y-7897667D01*
X2038333Y-7859571D01*
X2047857Y-7840524D01*
X2057381Y-7831000D01*
X2076428Y-7821476D01*
X2266905Y-7821476D02*
X2285952Y-7821476D01*
X2305000Y-7831000D01*
X2314524Y-7840524D01*
X2324048Y-7859571D01*
X2333571Y-7897667D01*
X2333571Y-7945286D01*
X2324048Y-7983381D01*
X2314524Y-8002428D01*
X2305000Y-8011952D01*
X2285952Y-8021476D01*
X2266905Y-8021476D01*
X2247857Y-8011952D01*
X2238333Y-8002428D01*
X2228810Y-7983381D01*
X2219286Y-7945286D01*
X2219286Y-7897667D01*
X2228810Y-7859571D01*
X2238333Y-7840524D01*
X2247857Y-7831000D01*
X2266905Y-7821476D01*
X2457381Y-7821476D02*
X2476429Y-7821476D01*
X2495476Y-7831000D01*
X2505000Y-7840524D01*
X2514524Y-7859571D01*
X2524048Y-7897667D01*
X2524048Y-7945286D01*
X2514524Y-7983381D01*
X2505000Y-8002428D01*
X2495476Y-8011952D01*
X2476429Y-8021476D01*
X2457381Y-8021476D01*
X2438333Y-8011952D01*
X2428810Y-8002428D01*
X2419286Y-7983381D01*
X2409762Y-7945286D01*
X2409762Y-7897667D01*
X2419286Y-7859571D01*
X2428810Y-7840524D01*
X2438333Y-7831000D01*
X2457381Y-7821476D01*
X2609762Y-8021476D02*
X2609762Y-7888143D01*
X2609762Y-7907190D02*
X2619286Y-7897667D01*
X2638333Y-7888143D01*
X2666905Y-7888143D01*
X2685952Y-7897667D01*
X2695476Y-7916714D01*
X2695476Y-8021476D01*
X2695476Y-7916714D02*
X2705000Y-7897667D01*
X2724048Y-7888143D01*
X2752619Y-7888143D01*
X2771667Y-7897667D01*
X2781190Y-7916714D01*
X2781190Y-8021476D01*
X2876428Y-8021476D02*
X2876428Y-7888143D01*
X2876428Y-7907190D02*
X2885952Y-7897667D01*
X2905000Y-7888143D01*
X2933571Y-7888143D01*
X2952619Y-7897667D01*
X2962143Y-7916714D01*
X2962143Y-8021476D01*
X2962143Y-7916714D02*
X2971667Y-7897667D01*
X2990714Y-7888143D01*
X3019286Y-7888143D01*
X3038333Y-7897667D01*
X3047857Y-7916714D01*
X3047857Y-8021476D01*
X3438333Y-7811952D02*
X3266905Y-8069095D01*
X3695476Y-7821476D02*
X3714524Y-7821476D01*
X3733571Y-7831000D01*
X3743095Y-7840524D01*
X3752619Y-7859571D01*
X3762143Y-7897667D01*
X3762143Y-7945286D01*
X3752619Y-7983381D01*
X3743095Y-8002428D01*
X3733571Y-8011952D01*
X3714524Y-8021476D01*
X3695476Y-8021476D01*
X3676428Y-8011952D01*
X3666905Y-8002428D01*
X3657381Y-7983381D01*
X3647857Y-7945286D01*
X3647857Y-7897667D01*
X3657381Y-7859571D01*
X3666905Y-7840524D01*
X3676428Y-7831000D01*
X3695476Y-7821476D01*
X3847857Y-8002428D02*
X3857381Y-8011952D01*
X3847857Y-8021476D01*
X3838333Y-8011952D01*
X3847857Y-8002428D01*
X3847857Y-8021476D01*
X4047857Y-8021476D02*
X3933571Y-8021476D01*
X3990714Y-8021476D02*
X3990714Y-7821476D01*
X3971667Y-7850048D01*
X3952619Y-7869095D01*
X3933571Y-7878619D01*
X4238333Y-8021476D02*
X4124048Y-8021476D01*
X4181190Y-8021476D02*
X4181190Y-7821476D01*
X4162143Y-7850048D01*
X4143095Y-7869095D01*
X4124048Y-7878619D01*
X4352619Y-7907190D02*
X4333571Y-7897667D01*
X4324048Y-7888143D01*
X4314524Y-7869095D01*
X4314524Y-7859571D01*
X4324048Y-7840524D01*
X4333571Y-7831000D01*
X4352619Y-7821476D01*
X4390714Y-7821476D01*
X4409762Y-7831000D01*
X4419286Y-7840524D01*
X4428810Y-7859571D01*
X4428810Y-7869095D01*
X4419286Y-7888143D01*
X4409762Y-7897667D01*
X4390714Y-7907190D01*
X4352619Y-7907190D01*
X4333571Y-7916714D01*
X4324048Y-7926238D01*
X4314524Y-7945286D01*
X4314524Y-7983381D01*
X4324048Y-8002428D01*
X4333571Y-8011952D01*
X4352619Y-8021476D01*
X4390714Y-8021476D01*
X4409762Y-8011952D01*
X4419286Y-8002428D01*
X4428810Y-7983381D01*
X4428810Y-7945286D01*
X4419286Y-7926238D01*
X4409762Y-7916714D01*
X4390714Y-7907190D01*
X4619286Y-8021476D02*
X4505000Y-8021476D01*
X4562143Y-8021476D02*
X4562143Y-7821476D01*
X4543095Y-7850048D01*
X4524048Y-7869095D01*
X4505000Y-7878619D01*
X4695476Y-7821476D02*
X4695476Y-7859571D01*
X4771667Y-7821476D02*
X4771667Y-7859571D01*
X5066905Y-8097667D02*
X5057381Y-8088143D01*
X5038333Y-8059571D01*
X5028810Y-8040524D01*
X5019286Y-8011952D01*
X5009762Y-7964333D01*
X5009762Y-7926238D01*
X5019286Y-7878619D01*
X5028810Y-7850048D01*
X5038333Y-7831000D01*
X5057381Y-7802428D01*
X5066905Y-7792905D01*
X5228810Y-7888143D02*
X5228810Y-8021476D01*
X5181190Y-7811952D02*
X5133571Y-7954809D01*
X5257381Y-7954809D01*
X5485952Y-8021476D02*
X5485952Y-7821476D01*
X5571667Y-8021476D02*
X5571667Y-7916714D01*
X5562143Y-7897667D01*
X5543095Y-7888143D01*
X5514524Y-7888143D01*
X5495476Y-7897667D01*
X5485952Y-7907190D01*
X5695476Y-8021476D02*
X5676428Y-8011952D01*
X5666905Y-8002428D01*
X5657381Y-7983381D01*
X5657381Y-7926238D01*
X5666905Y-7907190D01*
X5676428Y-7897667D01*
X5695476Y-7888143D01*
X5724048Y-7888143D01*
X5743095Y-7897667D01*
X5752619Y-7907190D01*
X5762143Y-7926238D01*
X5762143Y-7983381D01*
X5752619Y-8002428D01*
X5743095Y-8011952D01*
X5724048Y-8021476D01*
X5695476Y-8021476D01*
X5876428Y-8021476D02*
X5857381Y-8011952D01*
X5847857Y-7992905D01*
X5847857Y-7821476D01*
X6028809Y-8011952D02*
X6009762Y-8021476D01*
X5971667Y-8021476D01*
X5952619Y-8011952D01*
X5943095Y-7992905D01*
X5943095Y-7916714D01*
X5952619Y-7897667D01*
X5971667Y-7888143D01*
X6009762Y-7888143D01*
X6028809Y-7897667D01*
X6038333Y-7916714D01*
X6038333Y-7935762D01*
X5943095Y-7954809D01*
X6114524Y-8011952D02*
X6133571Y-8021476D01*
X6171667Y-8021476D01*
X6190714Y-8011952D01*
X6200238Y-7992905D01*
X6200238Y-7983381D01*
X6190714Y-7964333D01*
X6171667Y-7954809D01*
X6143095Y-7954809D01*
X6124048Y-7945286D01*
X6114524Y-7926238D01*
X6114524Y-7916714D01*
X6124048Y-7897667D01*
X6143095Y-7888143D01*
X6171667Y-7888143D01*
X6190714Y-7897667D01*
X6266905Y-8097667D02*
X6276428Y-8088143D01*
X6295476Y-8059571D01*
X6305000Y-8040524D01*
X6314524Y-8011952D01*
X6324048Y-7964333D01*
X6324048Y-7926238D01*
X6314524Y-7878619D01*
X6305000Y-7850048D01*
X6295476Y-7831000D01*
X6276428Y-7802428D01*
X6266905Y-7792905D01*
X6628809Y-8097667D02*
X6619286Y-8088143D01*
X6600238Y-8059571D01*
X6590714Y-8040524D01*
X6581190Y-8011952D01*
X6571667Y-7964333D01*
X6571667Y-7926238D01*
X6581190Y-7878619D01*
X6590714Y-7850048D01*
X6600238Y-7831000D01*
X6619286Y-7802428D01*
X6628809Y-7792905D01*
X6705000Y-7888143D02*
X6705000Y-8021476D01*
X6705000Y-7907190D02*
X6714524Y-7897667D01*
X6733571Y-7888143D01*
X6762143Y-7888143D01*
X6781190Y-7897667D01*
X6790714Y-7916714D01*
X6790714Y-8021476D01*
X6914524Y-8021476D02*
X6895476Y-8011952D01*
X6885952Y-8002428D01*
X6876428Y-7983381D01*
X6876428Y-7926238D01*
X6885952Y-7907190D01*
X6895476Y-7897667D01*
X6914524Y-7888143D01*
X6943095Y-7888143D01*
X6962143Y-7897667D01*
X6971667Y-7907190D01*
X6981190Y-7926238D01*
X6981190Y-7983381D01*
X6971667Y-8002428D01*
X6962143Y-8011952D01*
X6943095Y-8021476D01*
X6914524Y-8021476D01*
X7038333Y-7888143D02*
X7114524Y-7888143D01*
X7066905Y-7821476D02*
X7066905Y-7992905D01*
X7076428Y-8011952D01*
X7095476Y-8021476D01*
X7114524Y-8021476D01*
X7333571Y-7888143D02*
X7333571Y-8088143D01*
X7333571Y-7897667D02*
X7352619Y-7888143D01*
X7390714Y-7888143D01*
X7409762Y-7897667D01*
X7419286Y-7907190D01*
X7428809Y-7926238D01*
X7428809Y-7983381D01*
X7419286Y-8002428D01*
X7409762Y-8011952D01*
X7390714Y-8021476D01*
X7352619Y-8021476D01*
X7333571Y-8011952D01*
X7543095Y-8021476D02*
X7524048Y-8011952D01*
X7514524Y-7992905D01*
X7514524Y-7821476D01*
X7705000Y-8021476D02*
X7705000Y-7916714D01*
X7695476Y-7897667D01*
X7676428Y-7888143D01*
X7638333Y-7888143D01*
X7619286Y-7897667D01*
X7705000Y-8011952D02*
X7685952Y-8021476D01*
X7638333Y-8021476D01*
X7619286Y-8011952D01*
X7609762Y-7992905D01*
X7609762Y-7973857D01*
X7619286Y-7954809D01*
X7638333Y-7945286D01*
X7685952Y-7945286D01*
X7705000Y-7935762D01*
X7771667Y-7888143D02*
X7847857Y-7888143D01*
X7800238Y-7821476D02*
X7800238Y-7992905D01*
X7809762Y-8011952D01*
X7828809Y-8021476D01*
X7847857Y-8021476D01*
X7990714Y-8011952D02*
X7971667Y-8021476D01*
X7933571Y-8021476D01*
X7914524Y-8011952D01*
X7905000Y-7992905D01*
X7905000Y-7916714D01*
X7914524Y-7897667D01*
X7933571Y-7888143D01*
X7971667Y-7888143D01*
X7990714Y-7897667D01*
X8000238Y-7916714D01*
X8000238Y-7935762D01*
X7905000Y-7954809D01*
X8171667Y-8021476D02*
X8171667Y-7821476D01*
X8171667Y-8011952D02*
X8152619Y-8021476D01*
X8114524Y-8021476D01*
X8095476Y-8011952D01*
X8085952Y-8002428D01*
X8076428Y-7983381D01*
X8076428Y-7926238D01*
X8085952Y-7907190D01*
X8095476Y-7897667D01*
X8114524Y-7888143D01*
X8152619Y-7888143D01*
X8171667Y-7897667D01*
X8247857Y-8097667D02*
X8257381Y-8088143D01*
X8276428Y-8059571D01*
X8285952Y-8040524D01*
X8295476Y-8011952D01*
X8305000Y-7964333D01*
X8305000Y-7926238D01*
X8295476Y-7878619D01*
X8285952Y-7850048D01*
X8276428Y-7831000D01*
X8257381Y-7802428D01*
X8247857Y-7792905D01*
M02*
