M48
; DRILL file {KiCad 6.0.4} date Mo 16 Mai 2022 15:19:50 CEST
; FORMAT={-:-/ absolute / metric / decimal}
; #@! TF.CreationDate,2022-05-16T15:19:50+02:00
; #@! TF.GenerationSoftware,Kicad,Pcbnew,6.0.4
; #@! TF.FileFunction,Plated,1,2,PTH
FMAT,2
METRIC
; #@! TA.AperFunction,Plated,PTH,ViaDrill
T1C0.400
; #@! TA.AperFunction,Plated,PTH,ComponentDrill
T2C1.000
%
G90
G05
T1
X23.165Y-23.96
X23.165Y-47.72
X23.225Y-25.73
X23.225Y-28.05
X23.225Y-49.49
X23.225Y-51.81
X24.815Y-38.13
X24.815Y-61.89
X24.995Y-31.74
X24.995Y-55.5
X25.015Y-33.83
X25.015Y-57.59
X25.015Y-32.74
X25.015Y-56.5
X25.135Y-24.83
X25.135Y-48.59
X27.535Y-28.84
X27.535Y-52.6
X28.835Y-35.26
X28.835Y-59.02
X29.045Y-29.34
X29.045Y-53.1
X29.545Y-32.21
X29.545Y-55.97
X29.585Y-30.84
X29.585Y-54.6
X30.035Y-24.5
X30.035Y-48.26
X30.065Y-25.95
X30.065Y-49.71
X30.545Y-31.69
X30.545Y-55.45
X31.045Y-24.45
X31.045Y-48.21
X31.075Y-25.93
X31.075Y-49.69
X31.135Y-29.24
X31.135Y-53.0
X32.565Y-35.07
X32.565Y-58.83
X32.765Y-29.14
X32.765Y-52.9
X34.03Y-24.58
X34.03Y-25.924
X34.03Y-48.34
X34.03Y-49.684
X42.615Y-23.96
X42.615Y-47.72
X42.675Y-25.73
X42.675Y-28.05
X42.675Y-49.49
X42.675Y-51.81
X44.265Y-38.13
X44.265Y-61.89
X44.445Y-31.74
X44.445Y-55.5
X44.465Y-33.83
X44.465Y-57.59
X44.465Y-32.74
X44.465Y-56.5
X44.585Y-24.83
X44.585Y-48.59
X46.985Y-28.84
X46.985Y-52.6
X48.285Y-35.26
X48.285Y-59.02
X48.495Y-29.34
X48.495Y-53.1
X48.995Y-32.21
X48.995Y-55.97
X49.035Y-30.84
X49.035Y-54.6
X49.485Y-24.5
X49.485Y-48.26
X49.515Y-25.95
X49.515Y-49.71
X49.995Y-31.69
X49.995Y-55.45
X50.495Y-24.45
X50.495Y-48.21
X50.525Y-25.93
X50.525Y-49.69
X50.585Y-29.24
X50.585Y-53.0
X52.015Y-35.07
X52.015Y-58.83
X52.215Y-29.14
X52.215Y-52.9
X53.48Y-24.58
X53.48Y-25.924
X53.48Y-48.34
X53.48Y-49.684
X62.065Y-23.96
X62.065Y-47.72
X62.125Y-25.73
X62.125Y-28.05
X62.125Y-49.49
X62.125Y-51.81
X63.715Y-38.13
X63.715Y-61.89
X63.895Y-31.74
X63.895Y-55.5
X63.915Y-33.83
X63.915Y-57.59
X63.915Y-32.74
X63.915Y-56.5
X64.035Y-24.83
X64.035Y-48.59
X66.435Y-28.84
X66.435Y-52.6
X67.735Y-35.26
X67.735Y-59.02
X67.945Y-29.34
X67.945Y-53.1
X68.445Y-32.21
X68.445Y-55.97
X68.485Y-30.84
X68.485Y-54.6
X68.935Y-24.5
X68.935Y-48.26
X68.965Y-25.95
X68.965Y-49.71
X69.445Y-31.69
X69.445Y-55.45
X69.945Y-24.45
X69.945Y-48.21
X69.975Y-25.93
X69.975Y-49.69
X70.035Y-29.24
X70.035Y-53.0
X71.465Y-35.07
X71.465Y-58.83
X71.665Y-29.14
X71.665Y-52.9
X72.93Y-24.58
X72.93Y-25.924
X72.93Y-48.34
X72.93Y-49.684
X81.515Y-23.96
X81.515Y-47.72
X81.575Y-25.73
X81.575Y-28.05
X81.575Y-49.49
X81.575Y-51.81
X83.165Y-38.13
X83.165Y-61.89
X83.345Y-31.74
X83.345Y-55.5
X83.365Y-33.83
X83.365Y-57.59
X83.365Y-32.74
X83.365Y-56.5
X83.485Y-24.83
X83.485Y-48.59
X85.885Y-28.84
X85.885Y-52.6
X87.185Y-35.26
X87.185Y-59.02
X87.395Y-29.34
X87.395Y-53.1
X87.895Y-32.21
X87.895Y-55.97
X87.935Y-30.84
X87.935Y-54.6
X88.385Y-24.5
X88.385Y-48.26
X88.415Y-25.95
X88.415Y-49.71
X88.895Y-31.69
X88.895Y-55.45
X89.395Y-24.45
X89.395Y-48.21
X89.425Y-25.93
X89.425Y-49.69
X89.485Y-29.24
X89.485Y-53.0
X90.915Y-35.07
X90.915Y-58.83
X91.115Y-29.14
X91.115Y-52.9
X92.38Y-24.58
X92.38Y-25.924
X92.38Y-48.34
X92.38Y-49.684
X100.965Y-23.96
X100.965Y-47.72
X101.025Y-25.73
X101.025Y-28.05
X101.025Y-49.49
X101.025Y-51.81
X102.615Y-38.13
X102.615Y-61.89
X102.795Y-31.74
X102.795Y-55.5
X102.815Y-33.83
X102.815Y-57.59
X102.815Y-32.74
X102.815Y-56.5
X102.935Y-24.83
X102.935Y-48.59
X105.335Y-28.84
X105.335Y-52.6
X106.635Y-35.26
X106.635Y-59.02
X106.845Y-29.34
X106.845Y-53.1
X107.345Y-32.21
X107.345Y-55.97
X107.385Y-30.84
X107.385Y-54.6
X107.835Y-24.5
X107.835Y-48.26
X107.865Y-25.95
X107.865Y-49.71
X108.345Y-31.69
X108.345Y-55.45
X108.845Y-24.45
X108.845Y-48.21
X108.875Y-25.93
X108.875Y-49.69
X108.935Y-29.24
X108.935Y-53.0
X110.365Y-35.07
X110.365Y-58.83
X110.565Y-29.14
X110.565Y-52.9
X111.83Y-24.58
X111.83Y-25.924
X111.83Y-48.34
X111.83Y-49.684
T2
X26.025Y-38.96
X26.025Y-62.72
X28.565Y-38.96
X28.565Y-62.72
X31.105Y-38.96
X31.105Y-62.72
X45.475Y-38.96
X45.475Y-62.72
X48.015Y-38.96
X48.015Y-62.72
X50.555Y-38.96
X50.555Y-62.72
X64.925Y-38.96
X64.925Y-62.72
X67.465Y-38.96
X67.465Y-62.72
X70.005Y-38.96
X70.005Y-62.72
X84.375Y-38.96
X84.375Y-62.72
X86.915Y-38.96
X86.915Y-62.72
X89.455Y-38.96
X89.455Y-62.72
X103.825Y-38.96
X103.825Y-62.72
X106.365Y-38.96
X106.365Y-62.72
X108.905Y-38.96
X108.905Y-62.72
T0
M30
